(module LOGO (layer F.Cu)
  (at 0 0)
 (fp_text reference "G***" (at 0 0) (layer F.SilkS) hide
  (effects (font (thickness 0.3)))
  )
  (fp_text value "LOGO" (at 0.75 0) (layer F.SilkS) hide
  (effects (font (thickness 0.3)))
  )
  (fp_poly (pts (xy -1.117775 0.316827) (xy -1.081500 0.372370) (xy -1.039481 0.451796) (xy -1.027496 0.477093) (xy -0.973125 0.581348) (xy -0.909619 0.683519) (xy -0.850331 0.762207) (xy -0.847963 0.764867)
     (xy -0.753881 0.854426) (xy -0.637369 0.943486) (xy -0.514641 1.021144) (xy -0.401914 1.076493) (xy -0.365631 1.089242) (xy -0.298810 1.118953) (xy -0.271480 1.153717) (xy -0.271262 1.157021)
     (xy -0.288228 1.178255) (xy -0.337158 1.231341) (xy -0.415100 1.313304) (xy -0.519100 1.421166) (xy -0.646209 1.551954) (xy -0.793472 1.702691) (xy -0.957938 1.870401) (xy -1.136656 2.052109)
     (xy -1.326671 2.244838) (xy -1.525034 2.445614) (xy -1.728790 2.651460) (xy -1.934989 2.859401) (xy -2.140677 3.066461) (xy -2.342903 3.269664) (xy -2.538715 3.466035) (xy -2.725160 3.652597)
     (xy -2.899286 3.826376) (xy -3.058142 3.984395) (xy -3.198774 4.123678) (xy -3.318231 4.241251) (xy -3.413560 4.334136) (xy -3.481810 4.399360) (xy -3.520028 4.433945) (xy -3.527103 4.438835)
     (xy -3.547107 4.422110) (xy -3.597084 4.375036) (xy -3.672260 4.302266) (xy -3.767859 4.208454) (xy -3.879107 4.098251) (xy -3.982530 3.995043) (xy -4.414056 3.563016) (xy -4.266214 3.563016)
     (xy -4.249449 3.587936) (xy -4.203454 3.640452) (xy -4.134674 3.714112) (xy -4.049559 3.802463) (xy -3.954554 3.899052) (xy -3.856108 3.997426) (xy -3.760667 4.091133) (xy -3.674679 4.173719)
     (xy -3.604590 4.238731) (xy -3.556850 4.279718) (xy -3.538984 4.290874) (xy -3.518225 4.273818) (xy -3.465176 4.224303) (xy -3.382358 4.144812) (xy -3.272292 4.037824) (xy -3.137499 3.905821)
     (xy -2.980498 3.751284) (xy -2.803811 3.576693) (xy -2.609959 3.384529) (xy -2.401462 3.177273) (xy -2.180841 2.957407) (xy -1.961476 2.738272) (xy -1.732275 2.508847) (xy -1.513529 2.289494)
     (xy -1.307693 2.082697) (xy -1.117222 1.890941) (xy -0.944571 1.716711) (xy -0.792195 1.562490) (xy -0.662550 1.430765) (xy -0.558090 1.324018) (xy -0.481269 1.244735) (xy -0.434544 1.195401)
     (xy -0.420288 1.178515) (xy -0.446497 1.164639) (xy -0.504255 1.135212) (xy -0.579512 1.097378) (xy -0.726470 1.003586) (xy -0.870348 0.875285) (xy -0.997526 0.726150) (xy -1.083120 0.591731)
     (xy -1.165152 0.437822) (xy -2.715683 1.988207) (xy -2.945103 2.217874) (xy -3.164277 2.437807) (xy -3.370722 2.645485) (xy -3.561957 2.838386) (xy -3.735497 3.013989) (xy -3.888862 3.169774)
     (xy -4.019569 3.303217) (xy -4.125134 3.411800) (xy -4.203077 3.492999) (xy -4.250914 3.544294) (xy -4.266214 3.563016) (xy -4.414056 3.563016) (xy -4.425808 3.551251) (xy -2.798837 1.923587)
     (xy -2.563390 1.688358) (xy -2.337525 1.463321) (xy -2.123711 1.250901) (xy -1.924416 1.053523) (xy -1.742108 0.873611) (xy -1.579258 0.713590) (xy -1.438334 0.575885) (xy -1.321804 0.462919)
     (xy -1.232137 0.377118) (xy -1.171802 0.320907) (xy -1.143268 0.296709) (xy -1.141535 0.295922) (xy -1.117775 0.316827) )(layer F.SilkS) (width  0.010000)
  )
  (fp_poly (pts (xy -2.914004 -4.291992) (xy -2.906913 -4.286665) (xy -2.883225 -4.261469) (xy -2.831292 -4.202357) (xy -2.754475 -4.113276) (xy -2.656137 -3.998172) (xy -2.539638 -3.860990) (xy -2.408343 -3.705676)
     (xy -2.265612 -3.536177) (xy -2.143577 -3.390777) (xy -1.962256 -3.174418) (xy -1.762997 -2.936642) (xy -1.554021 -2.687260) (xy -1.343546 -2.436079) (xy -1.139792 -2.192908) (xy -0.950978 -1.967557)
     (xy -0.785323 -1.769835) (xy -0.779768 -1.763204) (xy -0.639870 -1.596507) (xy -0.509390 -1.441588) (xy -0.391814 -1.302544) (xy -0.290626 -1.183472) (xy -0.209311 -1.088468) (xy -0.151355 -1.021629)
     (xy -0.120242 -0.987052) (xy -0.116248 -0.983265) (xy -0.075084 -0.975794) (xy -0.047382 -0.979770) (xy 0.021793 -0.983288) (xy 0.121264 -0.970498) (xy 0.236149 -0.944870) (xy 0.351565 -0.909878)
     (xy 0.452630 -0.868992) (xy 0.474264 -0.858068) (xy 0.645256 -0.741337) (xy 0.787492 -0.592623) (xy 0.897031 -0.419839) (xy 0.969931 -0.230903) (xy 1.002251 -0.033727) (xy 0.990049 0.163772)
     (xy 0.988133 0.173850) (xy 0.957693 0.328574) (xy 1.111140 0.466374) (xy 1.366012 0.681844) (xy 1.608319 0.859761) (xy 1.836210 0.999312) (xy 2.047836 1.099685) (xy 2.241349 1.160065)
     (xy 2.414899 1.179640) (xy 2.566637 1.157598) (xy 2.628098 1.133503) (xy 2.745025 1.076900) (xy 2.792850 1.136460) (xy 2.818136 1.167114) (xy 2.871764 1.231511) (xy 2.950364 1.325621)
     (xy 3.050564 1.445414) (xy 3.168992 1.586862) (xy 3.302277 1.745936) (xy 3.447046 1.918606) (xy 3.584270 2.082183) (xy 3.736383 2.263713) (xy 3.879856 2.435414) (xy 4.011337 2.593242)
     (xy 4.127477 2.733153) (xy 4.224923 2.851103) (xy 4.300326 2.943047) (xy 4.350335 3.004939) (xy 4.370857 3.031601) (xy 4.411477 3.133739) (xy 4.406350 3.252256) (xy 4.355890 3.386170)
     (xy 4.260513 3.534497) (xy 4.120632 3.696252) (xy 4.068019 3.749243) (xy 3.896718 3.904950) (xy 3.723601 4.040208) (xy 3.553500 4.152799) (xy 3.391246 4.240503) (xy 3.241670 4.301101)
     (xy 3.109604 4.332374) (xy 2.999878 4.332104) (xy 2.917325 4.298071) (xy 2.902168 4.284709) (xy 2.882540 4.263477) (xy 2.848365 4.224623) (xy 2.798190 4.166423) (xy 2.730564 4.087154)
     (xy 2.644034 3.985090) (xy 2.537147 3.858508) (xy 2.408452 3.705684) (xy 2.256495 3.524893) (xy 2.079825 3.314412) (xy 1.876989 3.072516) (xy 1.646535 2.797480) (xy 1.387010 2.487582)
     (xy 1.174744 2.234025) (xy 0.969469 1.988703) (xy 0.793505 1.778412) (xy 0.644382 1.600467) (xy 0.519628 1.452183) (xy 0.416771 1.330877) (xy 0.333341 1.233864) (xy 0.266866 1.158460)
     (xy 0.214875 1.101982) (xy 0.174897 1.061744) (xy 0.144460 1.035063) (xy 0.121093 1.019255) (xy 0.102326 1.011636) (xy 0.085685 1.009521) (xy 0.068701 1.010226) (xy 0.048902 1.011068)
     (xy 0.048774 1.011068) (xy -0.164630 0.988653) (xy -0.189828 0.980531) (xy 0.271262 0.980531) (xy 0.271859 0.984488) (xy 0.274671 0.990773) (xy 0.281227 1.001226) (xy 0.293058 1.017688)
     (xy 0.311692 1.041999) (xy 0.338661 1.076000) (xy 0.375493 1.121532) (xy 0.423719 1.180434) (xy 0.484869 1.254547) (xy 0.560473 1.345713) (xy 0.652060 1.455770) (xy 0.761160 1.586560)
     (xy 0.889304 1.739923) (xy 1.038020 1.917700) (xy 1.208840 2.121731) (xy 1.403293 2.353857) (xy 1.622908 2.615917) (xy 1.869216 2.909754) (xy 2.143747 3.237206) (xy 2.448030 3.600114)
     (xy 2.534825 3.703630) (xy 2.672143 3.867402) (xy 2.782292 3.996950) (xy 2.870241 4.095462) (xy 2.940959 4.166125) (xy 2.999415 4.212129) (xy 3.050577 4.236661) (xy 3.099414 4.242908)
     (xy 3.150896 4.234059) (xy 3.209990 4.213302) (xy 3.281667 4.183824) (xy 3.282646 4.183422) (xy 3.428222 4.112617) (xy 3.580331 4.019417) (xy 3.732974 3.909494) (xy 3.880153 3.788517)
     (xy 4.015870 3.662159) (xy 4.134128 3.536089) (xy 4.228929 3.415978) (xy 4.294274 3.307496) (xy 4.324166 3.216316) (xy 4.325398 3.197559) (xy 4.321872 3.174804) (xy 4.309613 3.144657)
     (xy 4.286103 3.103846) (xy 4.248822 3.049101) (xy 4.195250 2.977151) (xy 4.122868 2.884727) (xy 4.029155 2.768557) (xy 3.911594 2.625371) (xy 3.767663 2.451898) (xy 3.594843 2.244867)
     (xy 3.552170 2.193865) (xy 3.397938 2.009638) (xy 3.252798 1.836372) (xy 3.119933 1.677859) (xy 3.002522 1.537887) (xy 2.903746 1.420248) (xy 2.826787 1.328732) (xy 2.774825 1.267129)
     (xy 2.751042 1.239228) (xy 2.750397 1.238505) (xy 2.721834 1.221212) (xy 2.677469 1.227367) (xy 2.631717 1.244670) (xy 2.484668 1.280217) (xy 2.314366 1.275487) (xy 2.123989 1.231840)
     (xy 1.916719 1.150636) (xy 1.695733 1.033237) (xy 1.464212 0.881003) (xy 1.225336 0.695296) (xy 1.105376 0.591427) (xy 0.929510 0.433971) (xy 0.890143 0.491406) (xy 0.803646 0.601662)
     (xy 0.698745 0.711540) (xy 0.588780 0.808552) (xy 0.487091 0.880210) (xy 0.457884 0.896038) (xy 0.382226 0.931091) (xy 0.322989 0.954930) (xy 0.297475 0.961747) (xy 0.272244 0.975446)
     (xy 0.271262 0.980531) (xy -0.189828 0.980531) (xy -0.362597 0.924843) (xy -0.540625 0.824788) (xy -0.694214 0.693641) (xy -0.818862 0.536552) (xy -0.910069 0.358674) (xy -0.963333 0.165157)
     (xy -0.966965 0.096659) (xy -0.875198 0.096659) (xy -0.853074 0.222837) (xy -0.780716 0.415655) (xy -0.671485 0.581113) (xy -0.531568 0.715898) (xy -0.367153 0.816701) (xy -0.184426 0.880207)
     (xy 0.010424 0.903105) (xy 0.211210 0.882084) (xy 0.320582 0.851075) (xy 0.493347 0.765323) (xy 0.644148 0.640088) (xy 0.766464 0.482731) (xy 0.853773 0.300609) (xy 0.877342 0.222837)
     (xy 0.904691 0.022152) (xy 0.886372 -0.172671) (xy 0.826037 -0.355629) (xy 0.727337 -0.520723) (xy 0.593925 -0.661950) (xy 0.429454 -0.773310) (xy 0.237574 -0.848801) (xy 0.222837 -0.852682)
     (xy 0.027243 -0.879201) (xy -0.161351 -0.861327) (xy -0.338058 -0.803944) (xy -0.497997 -0.711932) (xy -0.636281 -0.590175) (xy -0.748028 -0.443555) (xy -0.828352 -0.276955) (xy -0.872370 -0.095256)
     (xy -0.875198 0.096659) (xy -0.966965 0.096659) (xy -0.974153 -0.038848) (xy -0.961828 -0.145564) (xy -0.947694 -0.232759) (xy -0.944726 -0.285762) (xy -0.955097 -0.318876) (xy -0.980978 -0.346402)
     (xy -0.993992 -0.357272) (xy -1.040843 -0.396977) (xy -1.111145 -0.457951) (xy -1.191565 -0.528607) (xy -1.211512 -0.546270) (xy -1.412627 -0.710720) (xy -1.621081 -0.855592) (xy -1.829069 -0.976662)
     (xy -2.028786 -1.069705) (xy -2.212428 -1.130496) (xy -2.330428 -1.151935) (xy -2.430503 -1.153719) (xy -2.524672 -1.132638) (xy -2.587390 -1.108188) (xy -2.663673 -1.077485) (xy -2.708586 -1.067098)
     (xy -2.734934 -1.075411) (xy -2.746699 -1.088090) (xy -2.758087 -1.102593) (xy -2.778483 -1.127640) (xy -2.810083 -1.165848) (xy -2.855086 -1.219835) (xy -2.915691 -1.292217) (xy -2.994094 -1.385612)
     (xy -3.092493 -1.502636) (xy -3.213087 -1.645908) (xy -3.358074 -1.818045) (xy -3.529650 -2.021662) (xy -3.730015 -2.259379) (xy -3.812692 -2.357456) (xy -3.939635 -2.508598) (xy -4.057101 -2.649526)
     (xy -4.161088 -2.775353) (xy -4.247591 -2.881192) (xy -4.312607 -2.962157) (xy -4.352131 -3.013361) (xy -4.361976 -3.027825) (xy -4.390231 -3.131243) (xy -4.302012 -3.131243) (xy -4.284715 -3.085039)
     (xy -4.263052 -3.058602) (xy -4.212974 -2.998237) (xy -4.137726 -2.907833) (xy -4.040553 -2.791279) (xy -3.924699 -2.652466) (xy -3.793408 -2.495281) (xy -3.649926 -2.323616) (xy -3.501764 -2.146460)
     (xy -3.349678 -1.964599) (xy -3.206752 -1.793561) (xy -3.076210 -1.637216) (xy -2.961280 -1.499431) (xy -2.865185 -1.384077) (xy -2.791152 -1.295023) (xy -2.742406 -1.236138) (xy -2.722297 -1.211455)
     (xy -2.699099 -1.191353) (xy -2.664692 -1.191380) (xy -2.603528 -1.212154) (xy -2.592332 -1.216597) (xy -2.460976 -1.250844) (xy -2.316284 -1.251143) (xy -2.149249 -1.217105) (xy -2.075804 -1.194339)
     (xy -1.864279 -1.106934) (xy -1.637873 -0.983325) (xy -1.406539 -0.829923) (xy -1.180230 -0.653139) (xy -1.036500 -0.524928) (xy -0.971100 -0.463614) (xy -0.921712 -0.417931) (xy -0.897347 -0.396201)
     (xy -0.896275 -0.395462) (xy -0.882852 -0.414159) (xy -0.852651 -0.463004) (xy -0.829093 -0.502679) (xy -0.736968 -0.625906) (xy -0.613758 -0.743897) (xy -0.476731 -0.841689) (xy -0.382150 -0.889982)
     (xy -0.310130 -0.922024) (xy -0.260973 -0.948088) (xy -0.246602 -0.960409) (xy -0.246590 -0.963093) (xy -0.247797 -0.966913) (xy -0.252088 -0.974114) (xy -0.261328 -0.986937) (xy -0.277382 -1.007628)
     (xy -0.302114 -1.038429) (xy -0.337390 -1.081584) (xy -0.385074 -1.139336) (xy -0.447031 -1.213930) (xy -0.525126 -1.307608) (xy -0.621224 -1.422614) (xy -0.737190 -1.561192) (xy -0.874889 -1.725585)
     (xy -1.036185 -1.918037) (xy -1.222943 -2.140791) (xy -1.437029 -2.396091) (xy -1.680307 -2.686180) (xy -1.769695 -2.792767) (xy -1.995978 -3.062834) (xy -2.192674 -3.297687) (xy -2.362237 -3.499612)
     (xy -2.507118 -3.670892) (xy -2.629767 -3.813812) (xy -2.732638 -3.930656) (xy -2.818181 -4.023710) (xy -2.888848 -4.095258) (xy -2.947091 -4.147584) (xy -2.995362 -4.182972) (xy -3.036111 -4.203709)
     (xy -3.071791 -4.212077) (xy -3.104853 -4.210362) (xy -3.137750 -4.200848) (xy -3.172932 -4.185820) (xy -3.212851 -4.167562) (xy -3.234898 -4.158123) (xy -3.381105 -4.087878) (xy -3.530845 -3.997841)
     (xy -3.679503 -3.892729) (xy -3.822461 -3.777263) (xy -3.955104 -3.656159) (xy -4.072815 -3.534137) (xy -4.170977 -3.415916) (xy -4.244976 -3.306214) (xy -4.290193 -3.209751) (xy -4.302012 -3.131243)
     (xy -4.390231 -3.131243) (xy -4.390756 -3.133163) (xy -4.372922 -3.254415) (xy -4.308508 -3.391488) (xy -4.197549 -3.544289) (xy -4.139684 -3.610292) (xy -3.994023 -3.757156) (xy -3.837827 -3.893320)
     (xy -3.676626 -4.015750) (xy -3.515951 -4.121411) (xy -3.361331 -4.207269) (xy -3.218296 -4.270290) (xy -3.092377 -4.307440) (xy -2.989103 -4.315685) (xy -2.914004 -4.291992) )(layer F.SilkS) (width  0.010000)
  )
  (fp_poly (pts (xy 2.459954 -4.417200) (xy 2.754212 -4.416353) (xy 3.037078 -4.415023) (xy 3.304504 -4.413207) (xy 3.552445 -4.410900) (xy 3.776851 -4.408100) (xy 3.973676 -4.404802) (xy 4.138873 -4.401004)
     (xy 4.268393 -4.396702) (xy 4.358191 -4.391893) (xy 4.404217 -4.386572) (xy 4.409243 -4.384583) (xy 4.414317 -4.355307) (xy 4.418957 -4.280766) (xy 4.423162 -4.165014) (xy 4.426931 -4.012103)
     (xy 4.430266 -3.826087) (xy 4.433166 -3.611021) (xy 4.435631 -3.370956) (xy 4.437661 -3.109946) (xy 4.439256 -2.832046) (xy 4.440416 -2.541308) (xy 4.441141 -2.241785) (xy 4.441431 -1.937532)
     (xy 4.441287 -1.632601) (xy 4.440707 -1.331046) (xy 4.439692 -1.036921) (xy 4.438243 -0.754278) (xy 4.436358 -0.487171) (xy 4.434038 -0.239654) (xy 4.431284 -0.015780) (xy 4.428094 0.180397)
     (xy 4.424470 0.344824) (xy 4.420411 0.473449) (xy 4.415916 0.562216) (xy 4.410987 0.607074) (xy 4.409243 0.611573) (xy 4.375111 0.621539) (xy 4.300225 0.629618) (xy 4.193112 0.635808)
     (xy 4.062302 0.640110) (xy 3.916325 0.642524) (xy 3.763709 0.643050) (xy 3.612983 0.641687) (xy 3.472676 0.638436) (xy 3.351318 0.633297) (xy 3.257438 0.626270) (xy 3.199564 0.617354)
     (xy 3.186097 0.611573) (xy 3.179398 0.592386) (xy 3.173688 0.547363) (xy 3.168909 0.473671) (xy 3.165004 0.368473) (xy 3.161913 0.228936) (xy 3.159578 0.052225) (xy 3.157940 -0.164495)
     (xy 3.156942 -0.424057) (xy 3.156525 -0.729298) (xy 3.156505 -0.824768) (xy 3.156505 -2.231517) (xy 2.176148 -1.251389) (xy 1.992478 -1.068509) (xy 1.818735 -0.896957) (xy 1.658150 -0.739826)
     (xy 1.513956 -0.600214) (xy 1.389384 -0.481215) (xy 1.287667 -0.385924) (xy 1.212036 -0.317437) (xy 1.165723 -0.278849) (xy 1.152750 -0.271262) (xy 1.116262 -0.285778) (xy 1.109689 -0.302088)
     (xy 1.096526 -0.355512) (xy 1.061861 -0.435834) (xy 1.012869 -0.529824) (xy 0.956720 -0.624251) (xy 0.900588 -0.705884) (xy 0.871540 -0.741407) (xy 0.778149 -0.830212) (xy 0.662131 -0.918786)
     (xy 0.539753 -0.996205) (xy 0.427283 -1.051544) (xy 0.390291 -1.064582) (xy 0.323664 -1.094179) (xy 0.296165 -1.128760) (xy 0.295922 -1.132225) (xy 0.312916 -1.156533) (xy 0.361800 -1.212283)
     (xy 0.439431 -1.296203) (xy 0.542661 -1.405021) (xy 0.668347 -1.535465) (xy 0.813342 -1.684265) (xy 0.974503 -1.848148) (xy 1.148683 -2.023843) (xy 1.270000 -2.145437) (xy 1.450877 -2.326592)
     (xy 1.620854 -2.497449) (xy 1.776795 -2.654817) (xy 1.915568 -2.795503) (xy 2.034037 -2.916315) (xy 2.129070 -3.014060) (xy 2.197532 -3.085546) (xy 2.236289 -3.127580) (xy 2.244078 -3.137692)
     (xy 2.220141 -3.141160) (xy 2.151230 -3.144630) (xy 2.041686 -3.148029) (xy 1.895856 -3.151279) (xy 1.718084 -3.154305) (xy 1.512713 -3.157033) (xy 1.284089 -3.159385) (xy 1.036556 -3.161287)
     (xy 0.819951 -3.162470) (xy -0.604175 -3.168835) (xy -0.610794 -3.757606) (xy -0.612231 -3.968705) (xy -0.611190 -4.133280) (xy -0.607577 -4.254069) (xy -0.603707 -4.303204) (xy -0.505534 -4.303204)
     (xy -0.505534 -3.242816) (xy 0.967912 -3.236457) (xy 1.287681 -3.234867) (xy 1.561131 -3.233019) (xy 1.791262 -3.230835) (xy 1.981076 -3.228241) (xy 2.133574 -3.225162) (xy 2.251756 -3.221523)
     (xy 2.338623 -3.217249) (xy 2.397176 -3.212264) (xy 2.430416 -3.206494) (xy 2.441344 -3.199863) (xy 2.441359 -3.199578) (xy 2.424380 -3.177002) (xy 2.375508 -3.122856) (xy 2.297837 -3.040331)
     (xy 2.194462 -2.932616) (xy 2.068479 -2.802902) (xy 1.922984 -2.654380) (xy 1.761070 -2.490239) (xy 1.585835 -2.313669) (xy 1.439616 -2.167091) (xy 0.437873 -1.165125) (xy 0.591972 -1.082991)
     (xy 0.754358 -0.975317) (xy 0.909017 -0.834305) (xy 1.040564 -0.675340) (xy 1.107651 -0.567312) (xy 1.189785 -0.413213) (xy 2.191751 -1.414956) (xy 2.375906 -1.598550) (xy 2.550166 -1.771273)
     (xy 2.711340 -1.930029) (xy 2.856236 -2.071724) (xy 2.981664 -2.193262) (xy 3.084432 -2.291548) (xy 3.161351 -2.363486) (xy 3.209228 -2.405981) (xy 3.224432 -2.416699) (xy 3.231099 -2.407025)
     (xy 3.236796 -2.375956) (xy 3.241586 -2.320427) (xy 3.245534 -2.237370) (xy 3.248705 -2.123719) (xy 3.251162 -1.976406) (xy 3.252970 -1.792364) (xy 3.254193 -1.568527) (xy 3.254896 -1.301827)
     (xy 3.255143 -0.989198) (xy 3.255145 -0.953528) (xy 3.255423 -0.689364) (xy 3.256223 -0.439969) (xy 3.257494 -0.209695) (xy 3.259189 -0.002895) (xy 3.261255 0.176078) (xy 3.263645 0.322873)
     (xy 3.266308 0.433136) (xy 3.269195 0.502516) (xy 3.272063 0.526561) (xy 3.300720 0.531293) (xy 3.371180 0.534886) (xy 3.475937 0.537197) (xy 3.607484 0.538082) (xy 3.758313 0.537397)
     (xy 3.808422 0.536836) (xy 4.327864 0.530194) (xy 4.327864 -4.303204) (xy -0.505534 -4.303204) (xy -0.603707 -4.303204) (xy -0.601296 -4.333811) (xy -0.592253 -4.375246) (xy -0.589279 -4.380276)
     (xy -0.560508 -4.385828) (xy -0.486466 -4.390945) (xy -0.371200 -4.395624) (xy -0.218757 -4.399861) (xy -0.033185 -4.403654) (xy 0.181468 -4.406999) (xy 0.421155 -4.409892) (xy 0.681830 -4.412330)
     (xy 0.959445 -4.414309) (xy 1.249951 -4.415825) (xy 1.549303 -4.416876) (xy 1.853452 -4.417458) (xy 2.158351 -4.417567) (xy 2.459954 -4.417200) )(layer F.SilkS) (width  0.010000)
  )
)
