(module AMASS_XT90-M_1x02_P11.00mm_Vertical (layer F.Cu) (tedit 5DD925CE)
  (descr "AMASS male XT90, through hole, vertical, https://www.tme.eu/Document/d66b125cc4d03b6a25077f0febb346da/XT90H%20SPEC.pdf")
  (tags "XT90 male vertical")
  (fp_text reference REF** (at 5.5 -6.3 180) (layer F.SilkS)
    (effects (font (size 1 1) (thickness 0.15)))
  )
  (fp_text value AMASS_XT90-M_1x02_P11.00mm_Vertical (at 5.5 6.3) (layer F.Fab)
    (effects (font (size 1 1) (thickness 0.15)))
  )
  (fp_line (start -2.1 -5.55) (end 16.5 -5.55) (layer F.CrtYd) (width 0.05))
  (fp_line (start -5.5 -2.25) (end -2.1 -5.55) (layer F.CrtYd) (width 0.05))
  (fp_line (start -5.5 2.25) (end -5.5 -2.25) (layer F.CrtYd) (width 0.05))
  (fp_line (start -2.1 5.55) (end -5.5 2.25) (layer F.CrtYd) (width 0.05))
  (fp_line (start 16.5 5.55) (end -2.1 5.55) (layer F.CrtYd) (width 0.05))
  (fp_line (start 16.5 -5.55) (end 16.5 5.55) (layer F.CrtYd) (width 0.05))
  (fp_text user %R (at 5.5 0) (layer F.Fab)
    (effects (font (size 1 1) (thickness 0.15)))
  )
  (fp_line (start 15.9 4.95) (end 15.9 -4.95) (layer F.Fab) (width 0.1))
  (fp_line (start -1.7 4.95) (end 15.9 4.95) (layer F.Fab) (width 0.1))
  (fp_line (start -4.9 1.85) (end -1.7 4.95) (layer F.Fab) (width 0.1))
  (fp_line (start -4.9 -1.85) (end -4.9 1.85) (layer F.Fab) (width 0.1))
  (fp_line (start -1.7 -4.95) (end -4.9 -1.85) (layer F.Fab) (width 0.1))
  (fp_line (start 15.9 -4.95) (end -1.7 -4.95) (layer F.Fab) (width 0.1))
  (fp_line (start -5 2.75) (end -2.65 5.05) (layer F.SilkS) (width 0.12))
  (fp_line (start -2.65 -5.05) (end -5 -2.75) (layer F.SilkS) (width 0.12))
  (fp_line (start 16 5.05) (end 16 -5.05) (layer F.SilkS) (width 0.12))
  (fp_line (start -2.65 5.05) (end 16 5.05) (layer F.SilkS) (width 0.12))
  (fp_line (start -5 -2.75) (end -5 2.75) (layer F.SilkS) (width 0.12))
  (fp_line (start 16 -5.05) (end -2.65 -5.05) (layer F.SilkS) (width 0.12))
  (pad 2 thru_hole circle (at 11 0) (size 7.6 7.6) (drill 6) (layers *.Cu *.Mask))
  (pad 1 thru_hole roundrect (at 0 0) (size 7.6 7.6) (drill 6) (layers *.Cu *.Mask) (roundrect_rratio 0.25))
  (model ${KISYS3DMOD}/Connector_AMASS.3dshapes/AMASS_XT90-M_1x02_P11.00mm_Vertical.wrl
    (at (xyz 0 0 0))
    (scale (xyz 1 1 1))
    (rotate (xyz 0 0 0))
  )
)
