(module AMASS_XT60PW-F_1x02_P7.20mm_Horizontal (layer F.Cu) (tedit 5DDA992C)
  (descr "AMASS female XT60, through hole, horizontal, https://www.tme.eu/Document/9b8d0c5eb7094295f3d3112c214d3ade/XT60PW%20SPEC.pdf")
  (tags "XT60 female horizontal")
  (fp_text reference REF** (at 0 -9.25) (layer F.SilkS)
    (effects (font (size 1 1) (thickness 0.15)))
  )
  (fp_text value AMASS_XT60PW-F_1x02_P7.20mm_Horizontal (at 0 11.25) (layer F.Fab)
    (effects (font (size 1 1) (thickness 0.15)))
  )
  (fp_line (start 6.75 -7.7) (end 6.75 0) (layer F.Fab) (width 0.1))
  (fp_line (start -6.75 -7.7) (end -6.75 0) (layer F.Fab) (width 0.1))
  (fp_line (start -6.75 -7.7) (end 6.75 -7.7) (layer F.Fab) (width 0.1))
  (fp_line (start -7.75 0) (end -7.75 9.5) (layer F.Fab) (width 0.1))
  (fp_line (start 7.75 0) (end 7.75 9.5) (layer F.Fab) (width 0.1))
  (fp_line (start -7.75 0) (end -6.75 0) (layer F.Fab) (width 0.1))
  (fp_line (start 6.75 0) (end 7.75 0) (layer F.Fab) (width 0.1))
  (fp_line (start -7.75 9.5) (end 7.75 9.5) (layer F.Fab) (width 0.1))
  (fp_line (start 7 -7.25) (end 7 -0.25) (layer F.SilkS) (width 0.15))
  (fp_line (start 7 -0.25) (end 8 -0.25) (layer F.SilkS) (width 0.15))
  (fp_line (start 8 -0.25) (end 8 9.75) (layer F.SilkS) (width 0.15))
  (fp_line (start 8 9.75) (end -8 9.75) (layer F.SilkS) (width 0.15))
  (fp_line (start -8 9.75) (end -8 -0.25) (layer F.SilkS) (width 0.15))
  (fp_line (start -8 -0.25) (end -7 -0.25) (layer F.SilkS) (width 0.15))
  (fp_line (start -7 -0.25) (end -7 -8) (layer F.SilkS) (width 0.15))
  (fp_line (start -7 -8) (end 6.25 -8) (layer F.SilkS) (width 0.15))
  (fp_line (start 6.25 -8) (end 7 -7.25) (layer F.SilkS) (width 0.15))
  (fp_line (start 6 7.75) (end 7.5 7.75) (layer F.SilkS) (width 0.15))
  (fp_line (start -6 7.75) (end -7.5 7.75) (layer F.SilkS) (width 0.15))
  (fp_line (start -6.75 7) (end -6.75 8.5) (layer F.SilkS) (width 0.15))
  (fp_line (start -8.5 10.25) (end 8.5 10.25) (layer F.CrtYd) (width 0.1))
  (fp_line (start 8.5 10.25) (end 8.5 -8.5) (layer F.CrtYd) (width 0.1))
  (fp_line (start 8.5 -8.5) (end -8.5 -8.5) (layer F.CrtYd) (width 0.1))
  (fp_line (start -8.5 10.25) (end -8.5 -8.5) (layer F.CrtYd) (width 0.1))
  (pad "" thru_hole circle (at -6.75 1.65) (size 2 2) (drill 1.7) (layers *.Cu *.Mask))
  (pad "" thru_hole circle (at 6.75 1.65) (size 2 2) (drill 1.7) (layers *.Cu *.Mask))
  (pad 1 thru_hole rect (at 3.6 7.65) (size 3.7 3.7) (drill 2.7) (layers *.Cu *.Mask))
  (pad 2 thru_hole circle (at -3.6 7.65) (size 3.7 3.7) (drill 2.7) (layers *.Cu *.Mask))
)
