EESchema Schematic File Version 4
LIBS:archer-power-board-cache
EELAYER 30 0
EELAYER END
$Descr A4 11693 8268
encoding utf-8
Sheet 1 2
Title "ARCHER Powerboard"
Date "24.11.2019"
Rev "1.1"
Comp "Warsaw University of Technology"
Comment1 "Marek Łukasiewicz"
Comment2 ""
Comment3 ""
Comment4 ""
$EndDescr
Text GLabel 8150 1750 2    50   Input ~ 0
ESC_MAIN
Text GLabel 9950 1650 2    50   Input ~ 0
ESC_TAIL_1
Text GLabel 8150 1550 2    50   Input ~ 0
6S_ESTOPPED
$Comp
L Sensor_Current:ACS770xCB-100U-PFF U1
U 1 1 5D5D5A67
P 7450 1650
F 0 "U1" H 8250 1900 50  0000 C CNN
F 1 "ACS770xCB-100U-PFF" H 8250 1800 50  0000 C CNN
F 2 "Miscellaneous:ACS758ECB_200" H 7450 1650 50  0001 C CNN
F 3 "http://www.allegromicro.com/~/media/Files/Datasheets/ACS758-Datasheet.ashx?la=en" H 7450 1650 50  0001 C CNN
	1    7450 1650
	-1   0    0    -1  
$EndComp
$Comp
L power:GND #PWR022
U 1 1 5D5E3A5B
P 7450 1950
F 0 "#PWR022" H 7450 1700 50  0001 C CNN
F 1 "GND" H 7455 1777 50  0000 C CNN
F 2 "" H 7450 1950 50  0001 C CNN
F 3 "" H 7450 1950 50  0001 C CNN
	1    7450 1950
	1    0    0    -1  
$EndComp
Wire Wire Line
	7850 1750 8150 1750
$Comp
L Sensor_Current:ACS770xCB-050U-PFF U3
U 1 1 5D5ED452
P 9450 1550
F 0 "U3" H 9350 1950 50  0000 C CNN
F 1 "ACS770xCB-050U-PFF" H 8950 1850 50  0000 C CNN
F 2 "Miscellaneous:ACS758ECB_200" H 9450 1550 50  0001 C CNN
F 3 "http://www.allegromicro.com/~/media/Files/Datasheets/ACS758-Datasheet.ashx?la=en" H 9450 1550 50  0001 C CNN
	1    9450 1550
	-1   0    0    -1  
$EndComp
Wire Wire Line
	9950 1650 9850 1650
$Comp
L Sensor_Current:ACS770xCB-050U-PFF U4
U 1 1 5D5F61E3
P 9450 2800
F 0 "U4" H 9450 3281 50  0000 C CNN
F 1 "ACS770xCB-050U-PFF" H 9450 3190 50  0000 C CNN
F 2 "Miscellaneous:ACS758ECB_200" H 9450 2800 50  0001 C CNN
F 3 "http://www.allegromicro.com/~/media/Files/Datasheets/ACS758-Datasheet.ashx?la=en" H 9450 2800 50  0001 C CNN
	1    9450 2800
	-1   0    0    -1  
$EndComp
Wire Wire Line
	9850 2900 9950 2900
$Comp
L power:GND #PWR029
U 1 1 5D5FA174
P 9450 1850
F 0 "#PWR029" H 9450 1600 50  0001 C CNN
F 1 "GND" H 9455 1677 50  0000 C CNN
F 2 "" H 9450 1850 50  0001 C CNN
F 3 "" H 9450 1850 50  0001 C CNN
	1    9450 1850
	1    0    0    -1  
$EndComp
$Comp
L power:GND #PWR030
U 1 1 5D5FA733
P 9450 3100
F 0 "#PWR030" H 9450 2850 50  0001 C CNN
F 1 "GND" H 9455 2927 50  0000 C CNN
F 2 "" H 9450 3100 50  0001 C CNN
F 3 "" H 9450 3100 50  0001 C CNN
	1    9450 3100
	1    0    0    -1  
$EndComp
Wire Wire Line
	7850 1550 8150 1550
$Sheet
S 5400 4300 1500 1550
U 5D600165
F0 "Sheet Power Board STM" 50
F1 "filePowerSTM.sch" 50
F2 "UART_TX" O L 5400 4450 50 
F3 "UART_RX" I L 5400 4550 50 
F4 "VIN_I_MAIN" I R 6900 4400 50 
F5 "VIN_I_TAIL1" I R 6900 4500 50 
F6 "VIN_I_TAIL2" I R 6900 4600 50 
F7 "VIN_I_AVIO" I R 6900 4700 50 
F8 "VIN_V_BATT" I R 6900 5000 50 
F9 "VIN_I_SERVO" I R 6900 4800 50 
F10 "I2C_SDA" B L 5400 5750 50 
F11 "I2C_SCL" B L 5400 5650 50 
F12 "GPIO_0" B R 6900 5200 50 
F13 "GPIO_1" B R 6900 5300 50 
F14 "GPIO_2" B R 6900 5400 50 
F15 "GPIO_3" B R 6900 5500 50 
$EndSheet
Text GLabel 9950 1450 2    50   Input ~ 0
6S_ESTOPPED
Text GLabel 9950 2700 2    50   Input ~ 0
6S_ESTOPPED
Wire Wire Line
	6900 4400 7050 4400
Wire Wire Line
	6900 4500 7150 4500
Wire Wire Line
	6900 4600 7250 4600
Wire Wire Line
	9850 2700 9950 2700
Wire Wire Line
	9950 1450 9850 1450
Text GLabel 1050 2550 0    50   Input ~ 0
6S_BATT
Text GLabel 1700 4800 0    50   Input ~ 0
6S_ESTOPPED
Text GLabel 1700 4700 0    50   Input ~ 0
ESTOP
$Comp
L Connector_Generic:Conn_01x02 J3
U 1 1 5D61496C
P 2000 4800
F 0 "J3" H 2080 4792 50  0000 L CNN
F 1 "XT90_AntiSpark_Female" H 2080 4701 50  0000 L CNN
F 2 "Connector_AMASS:AMASS_XT90-F_1x02_P11.00mm_Vertical" H 2000 4800 50  0001 C CNN
F 3 "~" H 2000 4800 50  0001 C CNN
	1    2000 4800
	1    0    0    1   
$EndComp
Wire Wire Line
	1700 4700 1800 4700
$Comp
L Connector_Generic:Conn_01x02 J14
U 1 1 5D618A48
P 4100 3800
F 0 "J14" H 4180 3792 50  0000 L CNN
F 1 "XT30_Female" H 4180 3701 50  0000 L CNN
F 2 "Connector_AMASS:AMASS_XT30PW-F_1x02_P2.50mm_Horizontal" H 4100 3800 50  0001 C CNN
F 3 "~" H 4100 3800 50  0001 C CNN
	1    4100 3800
	1    0    0    1   
$EndComp
Text GLabel 3800 3700 0    50   Input ~ 0
5V_SERVO
$Comp
L power:GND #PWR012
U 1 1 5D6193E6
P 3900 3800
F 0 "#PWR012" H 3900 3550 50  0001 C CNN
F 1 "GND" H 3905 3627 50  0000 C CNN
F 2 "" H 3900 3800 50  0001 C CNN
F 3 "" H 3900 3800 50  0001 C CNN
	1    3900 3800
	1    0    0    -1  
$EndComp
$Comp
L Connector_Generic:Conn_01x01 J1
U 1 1 5D619B00
P 1700 800
F 0 "J1" H 1780 842 50  0000 L CNN
F 1 "BEC_SERVO_IN" H 1780 751 50  0000 L CNN
F 2 "Wire_Pads:SolderWirePad_single_1-5mmDrill" H 1700 800 50  0001 C CNN
F 3 "~" H 1700 800 50  0001 C CNN
	1    1700 800 
	1    0    0    -1  
$EndComp
$Comp
L Connector_Generic:Conn_01x01 J2
U 1 1 5D61A688
P 1700 1050
F 0 "J2" H 1780 1092 50  0000 L CNN
F 1 "BEC_SERVO_IN_GND" H 1780 1001 50  0000 L CNN
F 2 "Wire_Pads:SolderWirePad_single_1-5mmDrill" H 1700 1050 50  0001 C CNN
F 3 "~" H 1700 1050 50  0001 C CNN
	1    1700 1050
	1    0    0    -1  
$EndComp
$Comp
L Connector_Generic:Conn_01x01 J11
U 1 1 5D61AD03
P 3500 1050
F 0 "J11" H 3580 1092 50  0000 L CNN
F 1 "BEC_SERVO_OUT_GND" H 3580 1001 50  0000 L CNN
F 2 "Wire_Pads:SolderWirePad_single_1-5mmDrill" H 3450 800 50  0001 C CNN
F 3 "~" H 3500 1050 50  0001 C CNN
	1    3500 1050
	-1   0    0    -1  
$EndComp
$Comp
L power:GND #PWR011
U 1 1 5D61B183
P 3700 1050
F 0 "#PWR011" H 3700 800 50  0001 C CNN
F 1 "GND" H 3705 877 50  0000 C CNN
F 2 "" H 3700 1050 50  0001 C CNN
F 3 "" H 3700 1050 50  0001 C CNN
	1    3700 1050
	-1   0    0    -1  
$EndComp
$Comp
L power:GND #PWR03
U 1 1 5D61B4AB
P 1500 1050
F 0 "#PWR03" H 1500 800 50  0001 C CNN
F 1 "GND" H 1505 877 50  0000 C CNN
F 2 "" H 1500 1050 50  0001 C CNN
F 3 "" H 1500 1050 50  0001 C CNN
	1    1500 1050
	1    0    0    -1  
$EndComp
Text GLabel 3900 850  2    50   Input ~ 0
5V_SERVO
$Comp
L Connector_Generic:Conn_01x04 J13
U 1 1 5D624DD8
P 3900 4300
F 0 "J13" H 3980 4292 50  0000 L CNN
F 1 "JST-XH_Male" H 3980 4201 50  0000 L CNN
F 2 "Connectors_JST:JST_XH_S04B-XH-A_04x2.50mm_Angled" H 3900 4300 50  0001 C CNN
F 3 "~" H 3900 4300 50  0001 C CNN
	1    3900 4300
	-1   0    0    -1  
$EndComp
$Comp
L power:+5V #PWR018
U 1 1 5D628132
P 4100 4200
F 0 "#PWR018" H 4100 4050 50  0001 C CNN
F 1 "+5V" H 4115 4373 50  0000 C CNN
F 2 "" H 4100 4200 50  0001 C CNN
F 3 "" H 4100 4200 50  0001 C CNN
	1    4100 4200
	-1   0    0    -1  
$EndComp
Wire Wire Line
	5400 4450 4600 4450
Wire Wire Line
	4600 4450 4600 4300
Wire Wire Line
	4600 4300 4100 4300
Wire Wire Line
	4100 4400 4500 4400
Wire Wire Line
	4500 4400 4500 4550
Wire Wire Line
	4500 4550 5400 4550
$Comp
L Device:Jumper JP4
U 1 1 5D6303A6
P 4500 4900
F 0 "JP4" H 4500 5164 50  0000 C CNN
F 1 "Jumper" H 4500 5073 50  0000 C CNN
F 2 "Resistors_SMD:R_0805_HandSoldering" H 4500 4900 50  0001 C CNN
F 3 "~" H 4500 4900 50  0001 C CNN
	1    4500 4900
	-1   0    0    -1  
$EndComp
Wire Wire Line
	4100 4500 4100 4900
Wire Wire Line
	4100 4900 4200 4900
$Comp
L power:GND #PWR019
U 1 1 5D631440
P 4900 4900
F 0 "#PWR019" H 4900 4650 50  0001 C CNN
F 1 "GND" H 4905 4727 50  0000 C CNN
F 2 "" H 4900 4900 50  0001 C CNN
F 3 "" H 4900 4900 50  0001 C CNN
	1    4900 4900
	1    0    0    -1  
$EndComp
Wire Wire Line
	4800 4900 4900 4900
$Comp
L power:GND #PWR08
U 1 1 5D634C5A
P 3100 1750
F 0 "#PWR08" H 3100 1500 50  0001 C CNN
F 1 "GND" H 3105 1577 50  0000 C CNN
F 2 "" H 3100 1750 50  0001 C CNN
F 3 "" H 3100 1750 50  0001 C CNN
	1    3100 1750
	-1   0    0    -1  
$EndComp
$Comp
L power:GND #PWR06
U 1 1 5D63CE63
P 2200 1750
F 0 "#PWR06" H 2200 1500 50  0001 C CNN
F 1 "GND" H 2205 1577 50  0000 C CNN
F 2 "" H 2200 1750 50  0001 C CNN
F 3 "" H 2200 1750 50  0001 C CNN
	1    2200 1750
	-1   0    0    -1  
$EndComp
$Comp
L power:+5V #PWR027
U 1 1 5D63D0D0
P 8850 850
F 0 "#PWR027" H 8850 700 50  0001 C CNN
F 1 "+5V" H 8865 1023 50  0000 C CNN
F 2 "" H 8850 850 50  0001 C CNN
F 3 "" H 8850 850 50  0001 C CNN
	1    8850 850 
	-1   0    0    -1  
$EndComp
$Comp
L power:+5V #PWR034
U 1 1 5D63DFDE
P 10250 1950
F 0 "#PWR034" H 10250 1800 50  0001 C CNN
F 1 "+5V" H 10265 2123 50  0000 C CNN
F 2 "" H 10250 1950 50  0001 C CNN
F 3 "" H 10250 1950 50  0001 C CNN
	1    10250 1950
	-1   0    0    -1  
$EndComp
Wire Wire Line
	9450 2500 10000 2500
Text GLabel 1500 800  0    50   Input ~ 0
6S_BEC_SERVO
$Comp
L 1101M2S3CQE2:1101M2S3CQE2 S1
U 1 1 5D61D523
P 1700 5150
F 0 "S1" H 1750 5464 50  0000 C CNN
F 1 "1101M2S3CQE2" H 1750 5373 50  0000 C CNN
F 2 "Miscellaneous:SW_1101M2S3CQE2" H 1700 5150 50  0001 L BNN
F 3 "C&K Components" H 1700 5150 50  0001 L BNN
F 4 "Switch, Slide, PC Terminal, SPST, ON-NONE-OFF, 0.4VA MAX@120VAC OR VDC MAX" H 1700 5150 50  0001 L BNN "Field4"
F 5 "2.64 USD" H 1700 5150 50  0001 L BNN "Field5"
F 6 "1101M2S3CQE2" H 1700 5150 50  0001 L BNN "Field6"
F 7 "None" H 1700 5150 50  0001 L BNN "Field7"
F 8 "Good" H 1700 5150 50  0001 L BNN "Field8"
	1    1700 5150
	1    0    0    1   
$EndComp
Text GLabel 1500 5150 0    50   Input ~ 0
6S_BATT
Text GLabel 2000 5050 2    50   Input ~ 0
6S_BATT
Text GLabel 2000 5250 2    50   Input ~ 0
6S_SWITCHED_SERVO
Wire Wire Line
	1500 5150 1600 5150
Wire Wire Line
	1900 5050 2000 5050
Wire Wire Line
	1900 5250 2000 5250
$Comp
L 1101M2S3CQE2:1101M2S3CQE2 S2
U 1 1 5D6221E5
P 1700 5700
F 0 "S2" H 1750 6014 50  0000 C CNN
F 1 "1101M2S3CQE2" H 1750 5923 50  0000 C CNN
F 2 "Miscellaneous:SW_1101M2S3CQE2" H 1700 5700 50  0001 L BNN
F 3 "C&K Components" H 1700 5700 50  0001 L BNN
F 4 "Switch, Slide, PC Terminal, SPST, ON-NONE-OFF, 0.4VA MAX@120VAC OR VDC MAX" H 1700 5700 50  0001 L BNN "Field4"
F 5 "2.64 USD" H 1700 5700 50  0001 L BNN "Field5"
F 6 "1101M2S3CQE2" H 1700 5700 50  0001 L BNN "Field6"
F 7 "None" H 1700 5700 50  0001 L BNN "Field7"
F 8 "Good" H 1700 5700 50  0001 L BNN "Field8"
	1    1700 5700
	1    0    0    1   
$EndComp
Text GLabel 1500 5700 0    50   Input ~ 0
6S_BATT
Text GLabel 2000 5600 2    50   Input ~ 0
6S_BATT
Text GLabel 2000 5800 2    50   Input ~ 0
6S_SWITCHED_AVIO
Wire Wire Line
	1500 5700 1600 5700
Wire Wire Line
	1900 5600 2000 5600
Wire Wire Line
	1900 5800 2000 5800
$Comp
L Device:R R2
U 1 1 5D6273B8
P 1650 6700
F 0 "R2" H 1720 6746 50  0000 L CNN
F 1 "330" H 1720 6655 50  0000 L CNN
F 2 "Resistors_SMD:R_0805_HandSoldering" V 1580 6700 50  0001 C CNN
F 3 "~" H 1650 6700 50  0001 C CNN
	1    1650 6700
	1    0    0    -1  
$EndComp
$Comp
L Device:LED D2
U 1 1 5D627E4C
P 1650 7100
F 0 "D2" V 1689 6982 50  0000 R CNN
F 1 "LED_ORANGE" V 1598 6982 50  0000 R CNN
F 2 "LEDs:LED_D5.0mm" H 1650 7100 50  0001 C CNN
F 3 "~" H 1650 7100 50  0001 C CNN
	1    1650 7100
	0    -1   -1   0   
$EndComp
Wire Wire Line
	1650 6850 1650 6950
$Comp
L power:GND #PWR04
U 1 1 5D62C700
P 1650 7250
F 0 "#PWR04" H 1650 7000 50  0001 C CNN
F 1 "GND" H 1655 7077 50  0000 C CNN
F 2 "" H 1650 7250 50  0001 C CNN
F 3 "" H 1650 7250 50  0001 C CNN
	1    1650 7250
	-1   0    0    -1  
$EndComp
Text GLabel 1550 6550 0    50   Input ~ 0
5V_SERVO
Wire Wire Line
	1550 6550 1650 6550
$Comp
L power:+5V #PWR01
U 1 1 5D6458EF
P 800 6550
F 0 "#PWR01" H 800 6400 50  0001 C CNN
F 1 "+5V" H 815 6723 50  0000 C CNN
F 2 "" H 800 6550 50  0001 C CNN
F 3 "" H 800 6550 50  0001 C CNN
	1    800  6550
	-1   0    0    -1  
$EndComp
$Comp
L Device:R R1
U 1 1 5D646675
P 800 6700
F 0 "R1" H 870 6746 50  0000 L CNN
F 1 "330" H 870 6655 50  0000 L CNN
F 2 "Resistors_SMD:R_0805_HandSoldering" V 730 6700 50  0001 C CNN
F 3 "~" H 800 6700 50  0001 C CNN
	1    800  6700
	1    0    0    -1  
$EndComp
$Comp
L Device:LED D1
U 1 1 5D646A4A
P 800 7100
F 0 "D1" V 839 6983 50  0000 R CNN
F 1 "LED_YELLOW" V 748 6983 50  0000 R CNN
F 2 "LEDs:LED_D5.0mm" H 800 7100 50  0001 C CNN
F 3 "~" H 800 7100 50  0001 C CNN
	1    800  7100
	0    -1   -1   0   
$EndComp
Wire Wire Line
	800  6950 800  6850
$Comp
L power:GND #PWR02
U 1 1 5D6490C7
P 800 7250
F 0 "#PWR02" H 800 7000 50  0001 C CNN
F 1 "GND" H 805 7077 50  0000 C CNN
F 2 "" H 800 7250 50  0001 C CNN
F 3 "" H 800 7250 50  0001 C CNN
	1    800  7250
	-1   0    0    -1  
$EndComp
Text GLabel 2450 6550 0    50   Input ~ 0
6S_ESTOPPED
$Comp
L Device:R R3
U 1 1 5D652856
P 2550 6700
F 0 "R3" H 2620 6746 50  0000 L CNN
F 1 "1.7k" H 2620 6655 50  0000 L CNN
F 2 "Resistors_SMD:R_0805_HandSoldering" V 2480 6700 50  0001 C CNN
F 3 "~" H 2550 6700 50  0001 C CNN
	1    2550 6700
	1    0    0    -1  
$EndComp
$Comp
L Device:LED D3
U 1 1 5D652C87
P 2550 7100
F 0 "D3" V 2589 6982 50  0000 R CNN
F 1 "LED_RED" V 2498 6982 50  0000 R CNN
F 2 "LEDs:LED_D5.0mm" H 2550 7100 50  0001 C CNN
F 3 "~" H 2550 7100 50  0001 C CNN
	1    2550 7100
	0    -1   -1   0   
$EndComp
Wire Wire Line
	2550 6850 2550 6950
$Comp
L power:GND #PWR07
U 1 1 5D6545D3
P 2550 7250
F 0 "#PWR07" H 2550 7000 50  0001 C CNN
F 1 "GND" H 2555 7077 50  0000 C CNN
F 2 "" H 2550 7250 50  0001 C CNN
F 3 "" H 2550 7250 50  0001 C CNN
	1    2550 7250
	-1   0    0    -1  
$EndComp
Wire Wire Line
	2450 6550 2550 6550
Text GLabel 3200 6550 0    50   Input ~ 0
6S_BATT
$Comp
L Device:R R4
U 1 1 5D655FB0
P 3300 6700
F 0 "R4" H 3370 6746 50  0000 L CNN
F 1 "1.7k" H 3370 6655 50  0000 L CNN
F 2 "Resistors_SMD:R_0805_HandSoldering" V 3230 6700 50  0001 C CNN
F 3 "~" H 3300 6700 50  0001 C CNN
	1    3300 6700
	1    0    0    -1  
$EndComp
$Comp
L Device:LED D4
U 1 1 5D65642F
P 3300 7100
F 0 "D4" V 3339 6982 50  0000 R CNN
F 1 "LED_RED" V 3248 6982 50  0000 R CNN
F 2 "LEDs:LED_D5.0mm" H 3300 7100 50  0001 C CNN
F 3 "~" H 3300 7100 50  0001 C CNN
	1    3300 7100
	0    -1   -1   0   
$EndComp
$Comp
L power:GND #PWR09
U 1 1 5D656A33
P 3300 7250
F 0 "#PWR09" H 3300 7000 50  0001 C CNN
F 1 "GND" H 3305 7077 50  0000 C CNN
F 2 "" H 3300 7250 50  0001 C CNN
F 3 "" H 3300 7250 50  0001 C CNN
	1    3300 7250
	-1   0    0    -1  
$EndComp
Wire Wire Line
	3300 6850 3300 6950
Wire Notes Line
	600  6300 3800 6300
Wire Notes Line
	3800 6300 3800 7550
Wire Notes Line
	3800 7550 600  7550
Wire Notes Line
	600  7550 600  6300
Text Notes 600  7550 0    50   ~ 0
Panel indicators
Wire Notes Line
	600  6200 3200 6200
Wire Notes Line
	3200 6200 3200 4500
Wire Notes Line
	3200 4500 600  4500
Wire Notes Line
	600  4500 600  6200
Text Notes 600  6200 0    50   ~ 0
Panel switches
Wire Notes Line
	600  2250 3200 2250
Wire Notes Line
	3200 2250 3200 4400
Wire Notes Line
	600  4400 600  2250
Wire Notes Line
	3300 3600 5100 3600
Wire Notes Line
	5100 3600 5100 5150
Wire Notes Line
	5100 5150 3300 5150
Wire Notes Line
	3300 5150 3300 3600
Text Notes 3300 5150 0    50   ~ 0
MainBoard Connection
$Comp
L Connector_Generic:Conn_01x02 J15
U 1 1 5D67B07A
P 4350 2450
F 0 "J15" H 4430 2442 50  0000 L CNN
F 1 "XT90_Female" H 4430 2351 50  0000 L CNN
F 2 "Connector_AMASS:AMASS_XT90-F_1x02_P11.00mm_Vertical" H 4350 2450 50  0001 C CNN
F 3 "~" H 4350 2450 50  0001 C CNN
	1    4350 2450
	1    0    0    1   
$EndComp
Wire Notes Line
	3200 4400 600  4400
Text Notes 600  4400 0    50   ~ 0
Battery connection
$Comp
L power:GND #PWR014
U 1 1 5D67DC94
P 4150 2850
F 0 "#PWR014" H 4150 2600 50  0001 C CNN
F 1 "GND" H 4155 2677 50  0000 C CNN
F 2 "" H 4150 2850 50  0001 C CNN
F 3 "" H 4150 2850 50  0001 C CNN
	1    4150 2850
	1    0    0    -1  
$EndComp
$Comp
L power:GND #PWR013
U 1 1 5D67DF66
P 4150 2450
F 0 "#PWR013" H 4150 2200 50  0001 C CNN
F 1 "GND" H 4155 2277 50  0000 C CNN
F 2 "" H 4150 2450 50  0001 C CNN
F 3 "" H 4150 2450 50  0001 C CNN
	1    4150 2450
	1    0    0    -1  
$EndComp
Text GLabel 4050 2350 0    50   Input ~ 0
ESC_MAIN
Text GLabel 4050 2750 0    50   Input ~ 0
ESC_TAIL_1
Text GLabel 9950 2900 2    50   Input ~ 0
ESC_TAIL_2
Text GLabel 4050 3150 0    50   Input ~ 0
ESC_TAIL_2
Wire Notes Line
	3300 3500 5100 3500
Wire Notes Line
	5100 3500 5100 2250
Wire Notes Line
	5100 2250 3300 2250
Wire Notes Line
	3300 2250 3300 3500
Text Notes 3300 3500 0    50   ~ 0
Power connectors
Wire Wire Line
	3200 6550 3300 6550
Wire Notes Line
	4800 2150 4800 550 
Wire Notes Line
	4800 550  600  550 
Wire Notes Line
	600  550  600  2150
Wire Notes Line
	600  2150 4800 2150
Text Notes 600  2150 0    50   ~ 0
Step down power supply
$Comp
L power:+5V #PWR020
U 1 1 5D5F16FF
P 6800 750
F 0 "#PWR020" H 6800 600 50  0001 C CNN
F 1 "+5V" H 6815 923 50  0000 C CNN
F 2 "" H 6800 750 50  0001 C CNN
F 3 "" H 6800 750 50  0001 C CNN
	1    6800 750 
	-1   0    0    -1  
$EndComp
$Comp
L power:+5V #PWR010
U 1 1 5D635011
P 3450 1650
F 0 "#PWR010" H 3450 1500 50  0001 C CNN
F 1 "+5V" H 3465 1823 50  0000 C CNN
F 2 "" H 3450 1650 50  0001 C CNN
F 3 "" H 3450 1650 50  0001 C CNN
	1    3450 1650
	-1   0    0    -1  
$EndComp
$Comp
L Device:C C1
U 1 1 5D5F8E6A
P 7000 900
F 0 "C1" H 7115 946 50  0000 L CNN
F 1 "100nF" H 7115 855 50  0000 L CNN
F 2 "Capacitors_SMD:C_0805_HandSoldering" H 7038 750 50  0001 C CNN
F 3 "~" H 7000 900 50  0001 C CNN
	1    7000 900 
	1    0    0    -1  
$EndComp
$Comp
L power:GND #PWR021
U 1 1 5D5F9502
P 7000 1050
F 0 "#PWR021" H 7000 800 50  0001 C CNN
F 1 "GND" H 7005 877 50  0000 C CNN
F 2 "" H 7000 1050 50  0001 C CNN
F 3 "" H 7000 1050 50  0001 C CNN
	1    7000 1050
	1    0    0    -1  
$EndComp
Wire Wire Line
	6800 750  7000 750 
Wire Wire Line
	7450 750  7450 1350
Connection ~ 7000 750 
Wire Wire Line
	7000 750  7450 750 
$Comp
L Connector_Generic:Conn_01x02 J4
U 1 1 5D6127C6
P 2550 2650
F 0 "J4" H 2630 2642 50  0000 L CNN
F 1 "XT60_Male" H 2630 2551 50  0000 L CNN
F 2 "Connector_AMASS:AMASS_XT60PW-M_1x02_P7.20mm_Horizontal" H 2550 2650 50  0001 C CNN
F 3 "~" H 2550 2650 50  0001 C CNN
	1    2550 2650
	1    0    0    1   
$EndComp
$Comp
L Connector_Generic:Conn_01x04 J12
U 1 1 5D7F5DC9
P 3700 5650
F 0 "J12" H 3780 5642 50  0000 L CNN
F 1 "JST-GH" H 3780 5551 50  0000 L CNN
F 2 "Connectors_JST:JST_GH_BM04B-GHS-TBT_04x1.25mm_Straight" H 3700 5650 50  0001 C CNN
F 3 "~" H 3700 5650 50  0001 C CNN
	1    3700 5650
	-1   0    0    -1  
$EndComp
$Comp
L power:+5V #PWR016
U 1 1 5D7F643A
P 3900 5550
F 0 "#PWR016" H 3900 5400 50  0001 C CNN
F 1 "+5V" H 3915 5723 50  0000 C CNN
F 2 "" H 3900 5550 50  0001 C CNN
F 3 "" H 3900 5550 50  0001 C CNN
	1    3900 5550
	-1   0    0    -1  
$EndComp
$Comp
L power:GND #PWR017
U 1 1 5D7F8D5B
P 3900 5850
F 0 "#PWR017" H 3900 5600 50  0001 C CNN
F 1 "GND" H 3905 5677 50  0000 C CNN
F 2 "" H 3900 5850 50  0001 C CNN
F 3 "" H 3900 5850 50  0001 C CNN
	1    3900 5850
	1    0    0    -1  
$EndComp
Wire Wire Line
	5400 5650 3900 5650
Wire Wire Line
	3900 5750 5400 5750
Wire Notes Line
	3300 5250 3300 6200
Wire Notes Line
	3300 6200 5100 6200
Wire Notes Line
	5100 6200 5100 5250
Text Notes 3300 6200 0    50   ~ 0
I2C Connection
$Comp
L Device:C C3
U 1 1 5D81E96E
P 8850 1100
F 0 "C3" H 8965 1146 50  0000 L CNN
F 1 "100nF" H 8965 1055 50  0000 L CNN
F 2 "Capacitors_SMD:C_0805_HandSoldering" H 8888 950 50  0001 C CNN
F 3 "~" H 8850 1100 50  0001 C CNN
	1    8850 1100
	-1   0    0    1   
$EndComp
$Comp
L power:GND #PWR028
U 1 1 5D8244A0
P 8850 1250
F 0 "#PWR028" H 8850 1000 50  0001 C CNN
F 1 "GND" H 8855 1077 50  0000 C CNN
F 2 "" H 8850 1250 50  0001 C CNN
F 3 "" H 8850 1250 50  0001 C CNN
	1    8850 1250
	1    0    0    -1  
$EndComp
Wire Wire Line
	8850 850  8850 950 
Wire Wire Line
	8850 950  9450 950 
Wire Wire Line
	9450 950  9450 1250
Connection ~ 8850 950 
$Comp
L Device:C C5
U 1 1 5D8390E6
P 10250 2200
F 0 "C5" H 10365 2246 50  0000 L CNN
F 1 "100nF" H 10365 2155 50  0000 L CNN
F 2 "Capacitors_SMD:C_0805_HandSoldering" H 10288 2050 50  0001 C CNN
F 3 "~" H 10250 2200 50  0001 C CNN
	1    10250 2200
	1    0    0    1   
$EndComp
$Comp
L power:GND #PWR035
U 1 1 5D8390F0
P 10250 2350
F 0 "#PWR035" H 10250 2100 50  0001 C CNN
F 1 "GND" H 10255 2177 50  0000 C CNN
F 2 "" H 10250 2350 50  0001 C CNN
F 3 "" H 10250 2350 50  0001 C CNN
	1    10250 2350
	1    0    0    -1  
$EndComp
Wire Wire Line
	10250 1950 10250 2050
Wire Wire Line
	10250 2050 10000 2050
Wire Wire Line
	10000 2050 10000 2500
Connection ~ 10250 2050
$Comp
L Amplifier_Current:MAX4080S U2
U 1 1 5D8BC29A
P 8050 3950
F 0 "U2" H 8350 4350 50  0000 C CNN
F 1 "MAX4080S" H 8350 4250 50  0000 C CNN
F 2 "Housings_SSOP:MSOP-8_3x3mm_Pitch0.65mm" H 8700 3250 50  0001 C CNN
F 3 "http://datasheets.maximintegrated.com/en/ds/MAX4080-MAX4081.pdf" H 8050 4350 50  0001 C CNN
	1    8050 3950
	-1   0    0    -1  
$EndComp
$Comp
L Device:R R5
U 1 1 5D8C1012
P 8700 3950
F 0 "R5" H 8770 3996 50  0000 L CNN
F 1 "47m" H 8770 3905 50  0000 L CNN
F 2 "Resistors_SMD:R_0805_HandSoldering" V 8630 3950 50  0001 C CNN
F 3 "~" H 8700 3950 50  0001 C CNN
	1    8700 3950
	1    0    0    -1  
$EndComp
Wire Wire Line
	8700 3800 8450 3800
Wire Wire Line
	8450 4100 8700 4100
$Comp
L power:+5V #PWR024
U 1 1 5D8CA018
P 8300 3050
F 0 "#PWR024" H 8300 2900 50  0001 C CNN
F 1 "+5V" H 8315 3223 50  0000 C CNN
F 2 "" H 8300 3050 50  0001 C CNN
F 3 "" H 8300 3050 50  0001 C CNN
	1    8300 3050
	-1   0    0    -1  
$EndComp
$Comp
L Device:C C2
U 1 1 5D8CA022
P 8300 3300
F 0 "C2" H 8415 3346 50  0000 L CNN
F 1 "100nF" H 8415 3255 50  0000 L CNN
F 2 "Capacitors_SMD:C_0805_HandSoldering" H 8338 3150 50  0001 C CNN
F 3 "~" H 8300 3300 50  0001 C CNN
	1    8300 3300
	1    0    0    1   
$EndComp
$Comp
L power:GND #PWR025
U 1 1 5D8CA02C
P 8300 3450
F 0 "#PWR025" H 8300 3200 50  0001 C CNN
F 1 "GND" H 8305 3277 50  0000 C CNN
F 2 "" H 8300 3450 50  0001 C CNN
F 3 "" H 8300 3450 50  0001 C CNN
	1    8300 3450
	1    0    0    -1  
$EndComp
Wire Wire Line
	8300 3050 8300 3150
Wire Wire Line
	8300 3150 8050 3150
Connection ~ 8300 3150
Wire Wire Line
	7050 1650 7050 4400
Wire Wire Line
	9050 1550 9050 2300
Wire Wire Line
	9050 2300 7150 2300
Wire Wire Line
	7150 2300 7150 4500
Wire Wire Line
	8050 3150 8050 3650
Wire Wire Line
	8450 3800 8450 3850
Wire Wire Line
	8450 4050 8450 4100
Text GLabel 8700 3700 2    50   Input ~ 0
6S_SWITCHED_AVIO
Wire Wire Line
	8700 3700 8700 3800
Connection ~ 8700 3800
Text GLabel 8800 4200 2    50   Input ~ 0
6S_BEC_AVIO
Wire Wire Line
	8700 4100 8700 4200
Connection ~ 8700 4100
$Comp
L power:GND #PWR023
U 1 1 5D91FDFD
P 8050 4250
F 0 "#PWR023" H 8050 4000 50  0001 C CNN
F 1 "GND" H 8055 4077 50  0000 C CNN
F 2 "" H 8050 4250 50  0001 C CNN
F 3 "" H 8050 4250 50  0001 C CNN
	1    8050 4250
	1    0    0    -1  
$EndComp
$Comp
L Amplifier_Current:MAX4080S U5
U 1 1 5D92033F
P 9600 4800
F 0 "U5" H 9900 5200 50  0000 C CNN
F 1 "MAX4080S" H 9900 5100 50  0000 C CNN
F 2 "Housings_SSOP:MSOP-8_3x3mm_Pitch0.65mm" H 10250 4100 50  0001 C CNN
F 3 "http://datasheets.maximintegrated.com/en/ds/MAX4080-MAX4081.pdf" H 9600 5200 50  0001 C CNN
	1    9600 4800
	-1   0    0    -1  
$EndComp
$Comp
L Device:R R6
U 1 1 5D920349
P 10250 4800
F 0 "R6" H 10320 4846 50  0000 L CNN
F 1 "10m" H 10320 4755 50  0000 L CNN
F 2 "Resistors_SMD:R_0805_HandSoldering" V 10180 4800 50  0001 C CNN
F 3 "~" H 10250 4800 50  0001 C CNN
	1    10250 4800
	1    0    0    -1  
$EndComp
Wire Wire Line
	10250 4650 10000 4650
Wire Wire Line
	10000 4950 10250 4950
$Comp
L power:+5V #PWR032
U 1 1 5D920355
P 9850 3900
F 0 "#PWR032" H 9850 3750 50  0001 C CNN
F 1 "+5V" H 9865 4073 50  0000 C CNN
F 2 "" H 9850 3900 50  0001 C CNN
F 3 "" H 9850 3900 50  0001 C CNN
	1    9850 3900
	-1   0    0    -1  
$EndComp
$Comp
L Device:C C4
U 1 1 5D92035F
P 9850 4150
F 0 "C4" H 9965 4196 50  0000 L CNN
F 1 "100nF" H 9965 4105 50  0000 L CNN
F 2 "Capacitors_SMD:C_0805_HandSoldering" H 9888 4000 50  0001 C CNN
F 3 "~" H 9850 4150 50  0001 C CNN
	1    9850 4150
	1    0    0    1   
$EndComp
$Comp
L power:GND #PWR033
U 1 1 5D920369
P 9850 4300
F 0 "#PWR033" H 9850 4050 50  0001 C CNN
F 1 "GND" H 9855 4127 50  0000 C CNN
F 2 "" H 9850 4300 50  0001 C CNN
F 3 "" H 9850 4300 50  0001 C CNN
	1    9850 4300
	1    0    0    -1  
$EndComp
Wire Wire Line
	9850 3900 9850 4000
Wire Wire Line
	9850 4000 9600 4000
Connection ~ 9850 4000
Wire Wire Line
	9600 4000 9600 4500
Wire Wire Line
	10000 4650 10000 4700
Wire Wire Line
	10000 4900 10000 4950
Wire Wire Line
	10250 4550 10250 4650
Connection ~ 10250 4650
Wire Wire Line
	10250 4950 10250 5050
Connection ~ 10250 4950
$Comp
L power:GND #PWR031
U 1 1 5D92037F
P 9600 5100
F 0 "#PWR031" H 9600 4850 50  0001 C CNN
F 1 "GND" H 9605 4927 50  0000 C CNN
F 2 "" H 9600 5100 50  0001 C CNN
F 3 "" H 9600 5100 50  0001 C CNN
	1    9600 5100
	1    0    0    -1  
$EndComp
Text GLabel 10250 4550 2    50   Input ~ 0
6S_SWITCHED_SERVO
Text GLabel 10250 5050 2    50   Input ~ 0
6S_BEC_SERVO
Text Notes 10550 4850 0    50   Italic 0
160mW heat
$Comp
L power:PWR_FLAG #FLG01
U 1 1 5DD1D5AD
P 1150 2550
F 0 "#FLG01" H 1150 2625 50  0001 C CNN
F 1 "PWR_FLAG" H 1150 2723 50  0000 C CNN
F 2 "" H 1150 2550 50  0001 C CNN
F 3 "~" H 1150 2550 50  0001 C CNN
	1    1150 2550
	1    0    0    -1  
$EndComp
$Comp
L Connector_Generic:Conn_01x01 J10
U 1 1 5DD2D77C
P 3500 850
F 0 "J10" H 3580 892 50  0000 L CNN
F 1 "BEC_SERVO_OUT" H 3580 801 50  0000 L CNN
F 2 "Wire_Pads:SolderWirePad_single_1-5mmDrill" H 3500 850 50  0001 C CNN
F 3 "~" H 3500 850 50  0001 C CNN
	1    3500 850 
	-1   0    0    -1  
$EndComp
Connection ~ 1150 2550
Wire Wire Line
	1050 2550 1150 2550
Wire Wire Line
	3700 850  3800 850 
$Comp
L power:PWR_FLAG #FLG03
U 1 1 5DD369EE
P 3800 850
F 0 "#FLG03" H 3800 925 50  0001 C CNN
F 1 "PWR_FLAG" H 3800 1023 50  0000 C CNN
F 2 "" H 3800 850 50  0001 C CNN
F 3 "~" H 3800 850 50  0001 C CNN
	1    3800 850 
	1    0    0    -1  
$EndComp
Connection ~ 3800 850 
Wire Wire Line
	3800 850  3900 850 
$Comp
L power:GND #PWR05
U 1 1 5DD19065
P 1750 4150
F 0 "#PWR05" H 1750 3900 50  0001 C CNN
F 1 "GND" H 1755 3977 50  0000 C CNN
F 2 "" H 1750 4150 50  0001 C CNN
F 3 "" H 1750 4150 50  0001 C CNN
	1    1750 4150
	1    0    0    -1  
$EndComp
$Comp
L power:PWR_FLAG #FLG02
U 1 1 5DD21DB9
P 2150 4150
F 0 "#FLG02" H 2150 4225 50  0001 C CNN
F 1 "PWR_FLAG" H 2150 4323 50  0000 C CNN
F 2 "" H 2150 4150 50  0001 C CNN
F 3 "~" H 2150 4150 50  0001 C CNN
	1    2150 4150
	-1   0    0    1   
$EndComp
Wire Wire Line
	2150 4150 1850 4150
Wire Wire Line
	9050 2800 7250 2800
Wire Wire Line
	7250 2800 7250 4600
Wire Wire Line
	6900 4700 7350 4700
Wire Wire Line
	7350 4700 7350 3950
Wire Wire Line
	7350 3950 7650 3950
Wire Wire Line
	6900 4800 9200 4800
Wire Wire Line
	6900 5200 8050 5200
Wire Wire Line
	6900 5300 8050 5300
Wire Wire Line
	8050 5400 6900 5400
Wire Wire Line
	6900 5500 8050 5500
Text Notes 7750 5950 0    50   ~ 0
Future GPIO Connection
Wire Notes Line
	7750 5950 7750 5050
Wire Notes Line
	7750 5050 8850 5050
Wire Notes Line
	8850 5050 8850 5950
Wire Notes Line
	8850 5950 7750 5950
Text Notes 2100 750  0    50   Italic 0
Solder wires to external\ndedicated servo power supply
Wire Notes Line
	5100 5250 3300 5250
Text Notes 3300 1900 0    50   Italic 0
Sandwiched step down module\nwith 220uF on IN and OUT
$Comp
L Miscellaneous:OKY3502 U9
U 1 1 5DDD86A0
P 2650 1650
F 0 "U9" H 2650 1915 50  0000 C CNN
F 1 "OKY3502" H 2650 1824 50  0000 C CNN
F 2 "Miscellaneous:OKY3502" H 2650 1400 50  0001 C CNN
F 3 "https://okystar.com/product-item/lm2596s-lm2596-module-oky3502/#tab-id-1" H 2600 1650 50  0001 C CNN
	1    2650 1650
	1    0    0    -1  
$EndComp
Wire Wire Line
	3000 1750 3100 1750
Wire Wire Line
	2200 1750 2300 1750
Wire Wire Line
	3000 1650 3450 1650
Wire Wire Line
	2200 1650 2300 1650
Text GLabel 2200 1650 0    50   Input ~ 0
6S_BEC_AVIO
$Comp
L power:PWR_FLAG #FLG04
U 1 1 5DDF5757
P 8700 4200
F 0 "#FLG04" H 8700 4275 50  0001 C CNN
F 1 "PWR_FLAG" H 8700 4373 50  0000 C CNN
F 2 "" H 8700 4200 50  0001 C CNN
F 3 "~" H 8700 4200 50  0001 C CNN
	1    8700 4200
	-1   0    0    1   
$EndComp
Connection ~ 8700 4200
Wire Wire Line
	8700 4200 8800 4200
$Comp
L Connector_Generic:Conn_01x02 J17
U 1 1 5DE330FD
P 4350 3250
F 0 "J17" H 4430 3242 50  0000 L CNN
F 1 "XT60_Female" H 4430 3151 50  0000 L CNN
F 2 "Connector_AMASS:AMASS_XT60PW-F_1x02_P7.20mm_Horizontal" H 4350 3250 50  0001 C CNN
F 3 "~" H 4350 3250 50  0001 C CNN
	1    4350 3250
	1    0    0    1   
$EndComp
$Comp
L Connector_Generic:Conn_01x02 J16
U 1 1 5DE33689
P 4350 2850
F 0 "J16" H 4430 2842 50  0000 L CNN
F 1 "XT60_Female" H 4430 2751 50  0000 L CNN
F 2 "Connector_AMASS:AMASS_XT60PW-F_1x02_P7.20mm_Horizontal" H 4350 2850 50  0001 C CNN
F 3 "~" H 4350 2850 50  0001 C CNN
	1    4350 2850
	1    0    0    1   
$EndComp
$Comp
L power:GND #PWR015
U 1 1 5DE47A83
P 4150 3250
F 0 "#PWR015" H 4150 3000 50  0001 C CNN
F 1 "GND" H 4155 3077 50  0000 C CNN
F 2 "" H 4150 3250 50  0001 C CNN
F 3 "" H 4150 3250 50  0001 C CNN
	1    4150 3250
	1    0    0    -1  
$EndComp
Wire Wire Line
	4050 2350 4150 2350
Wire Wire Line
	4050 2750 4150 2750
Wire Wire Line
	4050 3150 4150 3150
Wire Wire Line
	3800 3700 3900 3700
$Comp
L Connector_Generic:Conn_01x02 J5
U 1 1 5DEDF12D
P 2550 2950
F 0 "J5" H 2630 2942 50  0000 L CNN
F 1 "XT60_Male" H 2630 2851 50  0000 L CNN
F 2 "Connector_AMASS:AMASS_XT60PW-M_1x02_P7.20mm_Horizontal" H 2550 2950 50  0001 C CNN
F 3 "~" H 2550 2950 50  0001 C CNN
	1    2550 2950
	1    0    0    1   
$EndComp
$Comp
L Connector_Generic:Conn_01x02 J6
U 1 1 5DEDF59D
P 2550 3250
F 0 "J6" H 2630 3242 50  0000 L CNN
F 1 "XT60_Male" H 2630 3151 50  0000 L CNN
F 2 "Connector_AMASS:AMASS_XT60PW-M_1x02_P7.20mm_Horizontal" H 2550 3250 50  0001 C CNN
F 3 "~" H 2550 3250 50  0001 C CNN
	1    2550 3250
	1    0    0    1   
$EndComp
$Comp
L Connector_Generic:Conn_01x02 J7
U 1 1 5DEDF86E
P 2550 3550
F 0 "J7" H 2630 3542 50  0000 L CNN
F 1 "XT60_Male" H 2630 3451 50  0000 L CNN
F 2 "Connector_AMASS:AMASS_XT60PW-M_1x02_P7.20mm_Horizontal" H 2550 3550 50  0001 C CNN
F 3 "~" H 2550 3550 50  0001 C CNN
	1    2550 3550
	1    0    0    1   
$EndComp
Wire Wire Line
	2350 2850 2250 2850
Wire Wire Line
	2250 2850 2250 2550
Wire Wire Line
	2350 3150 2150 3150
Wire Wire Line
	2150 3150 2150 2550
Wire Wire Line
	2350 3450 2050 3450
Wire Wire Line
	2050 3450 2050 2550
Connection ~ 2050 2550
Wire Wire Line
	2050 2550 2150 2550
Connection ~ 2150 2550
Wire Wire Line
	2150 2550 2250 2550
Connection ~ 2250 2550
Wire Wire Line
	2250 2550 2350 2550
Text GLabel 1050 2750 0    50   Input ~ 0
ESTOP
Wire Wire Line
	1150 2550 1150 2750
Wire Wire Line
	1150 2750 1050 2750
Wire Wire Line
	2350 2650 1750 2650
Wire Wire Line
	1750 2650 1750 2950
Wire Wire Line
	2350 2950 1750 2950
Connection ~ 1750 2950
Wire Wire Line
	1750 2950 1750 3250
Wire Wire Line
	2350 3250 1750 3250
Connection ~ 1750 3250
Wire Wire Line
	1750 3250 1750 3550
Wire Wire Line
	2350 3550 1750 3550
Connection ~ 1750 3550
Connection ~ 1750 4150
Wire Wire Line
	1700 4800 1800 4800
Text Notes 4300 2600 0    50   Italic 0
Solder horizontally
Wire Wire Line
	1750 3550 1750 4150
Wire Wire Line
	1150 2550 2050 2550
$Comp
L Connector_Generic:Conn_01x04 J18
U 1 1 5DF012E3
P 8250 5300
F 0 "J18" H 8250 4850 50  0000 C CNN
F 1 "Goldpin_Male" H 8250 4950 50  0000 C CNN
F 2 "Pin_Headers:Pin_Header_Straight_1x04_Pitch2.54mm" H 8250 5300 50  0001 C CNN
F 3 "~" H 8250 5300 50  0001 C CNN
	1    8250 5300
	1    0    0    -1  
$EndComp
Text GLabel 7000 5000 2    50   Input ~ 0
6S_SWITCHED_AVIO
Wire Wire Line
	7000 5000 6900 5000
$Comp
L Device:R R27
U 1 1 5DF2D1AE
P 1850 4000
F 0 "R27" H 1920 4046 50  0000 L CNN
F 1 "47k" H 1920 3955 50  0000 L CNN
F 2 "Resistors_SMD:R_0805_HandSoldering" V 1780 4000 50  0001 C CNN
F 3 "~" H 1850 4000 50  0001 C CNN
	1    1850 4000
	1    0    0    -1  
$EndComp
Text Notes 600  4100 0    50   Italic 0
Pull-down to keep fuselage\nvoltage tied to GND,\nto prevent ESD in case\nfuselage is charged in hover.\n\nIn case of shorting 6S\n13mA, 330mW here
Connection ~ 1850 4150
Wire Wire Line
	1850 4150 1750 4150
Wire Wire Line
	1850 3750 1850 3850
$Comp
L Connector_Generic:Conn_01x01 J8
U 1 1 5DF42FBA
P 2050 3750
F 0 "J8" H 2130 3792 50  0000 L CNN
F 1 "FUSELAGE_REFERENCE" H 2130 3701 50  0000 L CNN
F 2 "Mounting_Holes:MountingHole_2.2mm_M2_Pad" H 2050 3750 50  0001 C CNN
F 3 "~" H 2050 3750 50  0001 C CNN
	1    2050 3750
	1    0    0    -1  
$EndComp
$EndSCHEMATC
