"A"; "value_tail_1"; "value_tail_2"
0.00; 338; 332
1.20; 406; 394
2.30; 473; 461
3.50; 540; 529
4.60; 607; 597
5.80; 675; 664
6.90; 743; 732
8.00; 811; 800
9.20; 879; 869
10.30; 948; 937
14.90; 1220; 1211
20.60; 1562; 1554
25.20; 1835; 1828
30.90; 2178; 2172
35.50; 2447; 2448
40.10; 2721; 2718