<?xml version="1.0" encoding="UTF-8" standalone="no"?>
<graphml xmlns="http://graphml.graphdrawing.org/xmlns" xmlns:java="http://www.yworks.com/xml/yfiles-common/1.0/java" xmlns:sys="http://www.yworks.com/xml/yfiles-common/markup/primitives/2.0" xmlns:x="http://www.yworks.com/xml/yfiles-common/markup/2.0" xmlns:xsi="http://www.w3.org/2001/XMLSchema-instance" xmlns:y="http://www.yworks.com/xml/graphml" xmlns:yed="http://www.yworks.com/xml/yed/3" xsi:schemaLocation="http://graphml.graphdrawing.org/xmlns http://www.yworks.com/xml/schema/graphml/1.1/ygraphml.xsd">
  <!--Created by yEd 3.19.1.1-->
  <key attr.name="Description" attr.type="string" for="graph" id="d0"/>
  <key for="port" id="d1" yfiles.type="portgraphics"/>
  <key for="port" id="d2" yfiles.type="portgeometry"/>
  <key for="port" id="d3" yfiles.type="portuserdata"/>
  <key attr.name="url" attr.type="string" for="node" id="d4"/>
  <key attr.name="description" attr.type="string" for="node" id="d5"/>
  <key for="node" id="d6" yfiles.type="nodegraphics"/>
  <key for="graphml" id="d7" yfiles.type="resources"/>
  <key attr.name="url" attr.type="string" for="edge" id="d8"/>
  <key attr.name="description" attr.type="string" for="edge" id="d9"/>
  <key for="edge" id="d10" yfiles.type="edgegraphics"/>
  <graph edgedefault="directed" id="G">
    <data key="d0"/>
    <node id="n0" yfiles.foldertype="group">
      <data key="d4" xml:space="preserve"/>
      <data key="d6">
        <y:ProxyAutoBoundsNode>
          <y:Realizers active="0">
            <y:GroupNode>
              <y:Geometry height="270.72474266240295" width="210.33055999999922" x="260.50640000000055" y="307.6610710144039"/>
              <y:Fill color="#6ABA9C" transparent="false"/>
              <y:BorderStyle color="#000000" type="line" width="1.0"/>
              <y:NodeLabel alignment="right" autoSizePolicy="node_width" backgroundColor="#3C3C4C" borderDistance="0.0" fontFamily="Lato" fontSize="15" fontStyle="plain" hasLineColor="false" height="18.999866485595703" horizontalTextPosition="center" iconTextGap="4" modelName="internal" modelPosition="t" textColor="#FFFFFF" verticalTextPosition="bottom" visible="true" width="210.33055999999922" x="0.0" xml:space="preserve" y="0.0">Płyta zasilająca</y:NodeLabel>
              <y:Shape type="rectangle"/>
              <y:DropShadow color="#D2D2D2" offsetX="4" offsetY="4"/>
              <y:State closed="false" closedHeight="50.0" closedWidth="50.0" innerGraphDisplayEnabled="false"/>
              <y:Insets bottom="5" bottomF="5.0" left="5" leftF="5.0" right="5" rightF="5.0" top="5" topF="5.0"/>
              <y:BorderInsets bottom="10" bottomF="10.183671647998949" left="6" leftF="5.629440000000983" right="5" rightF="5.0" top="7" topF="6.6612045288081845"/>
            </y:GroupNode>
            <y:GroupNode>
              <y:Geometry height="50.0" width="50.0" x="166.29056000000105" y="196.27999999999986"/>
              <y:Fill color="#F2F0D8" transparent="false"/>
              <y:BorderStyle color="#000000" type="line" width="1.0"/>
              <y:NodeLabel alignment="right" autoSizePolicy="node_width" backgroundColor="#B7B69E" borderDistance="0.0" fontFamily="Dialog" fontSize="15" fontStyle="plain" hasLineColor="false" height="22.37646484375" horizontalTextPosition="center" iconTextGap="4" modelName="internal" modelPosition="t" textColor="#000000" verticalTextPosition="bottom" visible="true" width="50.0" x="0.0" xml:space="preserve" y="0.0">3</y:NodeLabel>
              <y:Shape type="rectangle"/>
              <y:DropShadow color="#D2D2D2" offsetX="4" offsetY="4"/>
              <y:State closed="true" closedHeight="50.0" closedWidth="50.0" innerGraphDisplayEnabled="false"/>
              <y:Insets bottom="5" bottomF="5.0" left="5" leftF="5.0" right="5" rightF="5.0" top="5" topF="5.0"/>
              <y:BorderInsets bottom="0" bottomF="0.0" left="0" leftF="0.0" right="0" rightF="0.0" top="0" topF="0.0"/>
            </y:GroupNode>
          </y:Realizers>
        </y:ProxyAutoBoundsNode>
      </data>
      <graph edgedefault="directed" id="n0:">
        <node id="n0::n0">
          <data key="d6">
            <y:ShapeNode>
              <y:Geometry height="54.960000000000036" width="79.85055999999912" x="380.98640000000063" y="423.2821420288078"/>
              <y:Fill color="#DEE8EA" transparent="false"/>
              <y:BorderStyle color="#000000" raised="false" type="line" width="1.0"/>
              <y:NodeLabel alignment="center" autoSizePolicy="content" fontFamily="Lato" fontSize="12" fontStyle="plain" hasBackgroundColor="false" hasLineColor="false" height="28.000167846679688" horizontalTextPosition="center" iconTextGap="4" modelName="custom" textColor="#000000" verticalTextPosition="bottom" visible="true" width="56.572357177734375" x="11.639101411132401" xml:space="preserve" y="13.479916076660174">Biblioteka
MAVLink<y:LabelModel><y:SmartNodeLabelModel distance="4.0"/></y:LabelModel><y:ModelParameter><y:SmartNodeLabelModelParameter labelRatioX="0.0" labelRatioY="0.0" nodeRatioX="0.0" nodeRatioY="0.0" offsetX="0.0" offsetY="0.0" upX="0.0" upY="-1.0"/></y:ModelParameter></y:NodeLabel>
              <y:Shape type="rectangle"/>
            </y:ShapeNode>
          </data>
        </node>
        <node id="n0::n1">
          <data key="d6">
            <y:ShapeNode>
              <y:Geometry height="54.960000000000036" width="189.70111999999816" x="271.13584000000156" y="508.2421420288079"/>
              <y:Fill color="#DEE8EA" transparent="false"/>
              <y:BorderStyle color="#000000" raised="false" type="line" width="1.0"/>
              <y:NodeLabel alignment="center" autoSizePolicy="content" fontFamily="Lato" fontSize="12" fontStyle="plain" hasBackgroundColor="false" hasLineColor="false" height="16.000083923339844" horizontalTextPosition="center" iconTextGap="4" modelName="custom" textColor="#000000" verticalTextPosition="bottom" visible="true" width="128.6568603515625" x="30.522129824217842" xml:space="preserve" y="19.479958038330096">Firmware STM32 (HAL)<y:LabelModel><y:SmartNodeLabelModel distance="4.0"/></y:LabelModel><y:ModelParameter><y:SmartNodeLabelModelParameter labelRatioX="0.0" labelRatioY="0.0" nodeRatioX="0.0" nodeRatioY="0.0" offsetX="0.0" offsetY="0.0" upX="0.0" upY="-1.0"/></y:ModelParameter></y:NodeLabel>
              <y:Shape type="rectangle"/>
            </y:ShapeNode>
          </data>
        </node>
        <node id="n0::n2">
          <data key="d6">
            <y:ShapeNode>
              <y:Geometry height="54.960000000000036" width="79.85055999999909" x="271.1358400000015" y="423.2821420288078"/>
              <y:Fill color="#DEE8EA" transparent="false"/>
              <y:BorderStyle color="#000000" raised="false" type="line" width="1.0"/>
              <y:NodeLabel alignment="center" autoSizePolicy="content" fontFamily="Lato" fontSize="12" fontStyle="plain" hasBackgroundColor="false" hasLineColor="false" height="28.000167846679688" horizontalTextPosition="center" iconTextGap="4" modelName="custom" textColor="#000000" verticalTextPosition="bottom" visible="true" width="66.07643127441406" x="6.887064362792529" xml:space="preserve" y="13.479916076660174">Przeliczenia
ADC<y:LabelModel><y:SmartNodeLabelModel distance="4.0"/></y:LabelModel><y:ModelParameter><y:SmartNodeLabelModelParameter labelRatioX="0.0" labelRatioY="0.0" nodeRatioX="0.0" nodeRatioY="0.0" offsetX="0.0" offsetY="0.0" upX="0.0" upY="-1.0"/></y:ModelParameter></y:NodeLabel>
              <y:Shape type="rectangle"/>
            </y:ShapeNode>
          </data>
        </node>
        <node id="n0::n3">
          <data key="d6">
            <y:ShapeNode>
              <y:Geometry height="54.960000000000036" width="189.70111999999813" x="271.13584000000156" y="338.3221420288078"/>
              <y:Fill color="#DEE8EA" transparent="false"/>
              <y:BorderStyle color="#000000" raised="false" type="line" width="1.0"/>
              <y:NodeLabel alignment="center" autoSizePolicy="content" fontFamily="Lato" fontSize="12" fontStyle="plain" hasBackgroundColor="false" hasLineColor="false" height="16.000083923339844" horizontalTextPosition="center" iconTextGap="4" modelName="custom" textColor="#000000" verticalTextPosition="bottom" visible="true" width="74.59048461914062" x="57.55531769042875" xml:space="preserve" y="19.479958038330096">Główna pętla<y:LabelModel><y:SmartNodeLabelModel distance="4.0"/></y:LabelModel><y:ModelParameter><y:SmartNodeLabelModelParameter labelRatioX="0.0" labelRatioY="0.0" nodeRatioX="0.0" nodeRatioY="0.0" offsetX="0.0" offsetY="0.0" upX="0.0" upY="-1.0"/></y:ModelParameter></y:NodeLabel>
              <y:Shape type="rectangle"/>
            </y:ShapeNode>
          </data>
        </node>
      </graph>
    </node>
    <node id="n1" yfiles.foldertype="group">
      <data key="d4" xml:space="preserve"/>
      <data key="d6">
        <y:ProxyAutoBoundsNode>
          <y:Realizers active="0">
            <y:GroupNode>
              <y:Geometry height="117.35789198559564" width="189.53055999999924" x="916.1064000000007" y="307.1231960360099"/>
              <y:Fill color="#6ABA9C" transparent="false"/>
              <y:BorderStyle color="#000000" type="line" width="1.0"/>
              <y:NodeLabel alignment="right" autoSizePolicy="node_width" backgroundColor="#3C3C4C" borderDistance="0.0" fontFamily="Lato" fontSize="15" fontStyle="plain" hasLineColor="false" height="18.999866485595703" horizontalTextPosition="center" iconTextGap="4" modelName="internal" modelPosition="t" textColor="#FFFFFF" verticalTextPosition="bottom" visible="true" width="189.53055999999924" x="0.0" xml:space="preserve" y="0.0">Komputer misji</y:NodeLabel>
              <y:Shape type="rectangle"/>
              <y:DropShadow color="#D2D2D2" offsetX="4" offsetY="4"/>
              <y:State closed="false" closedHeight="50.0" closedWidth="50.0" innerGraphDisplayEnabled="false"/>
              <y:Insets bottom="5" bottomF="5.0" left="5" leftF="5.0" right="5" rightF="5.0" top="5" topF="5.0"/>
              <y:BorderInsets bottom="21" bottomF="21.12428367599989" left="17" leftF="16.6400000000001" right="10" rightF="10.239999999999895" top="12" topF="12.273741824000012"/>
            </y:GroupNode>
            <y:GroupNode>
              <y:Geometry height="363.5409375" width="163.89352874999912" x="414.2354918400008" y="189.87999999999985"/>
              <y:Fill color="#F2F0D8" transparent="false"/>
              <y:BorderStyle color="#000000" type="line" width="1.0"/>
              <y:NodeLabel alignment="right" autoSizePolicy="node_width" backgroundColor="#B7B69E" borderDistance="0.0" fontFamily="Dialog" fontSize="15" fontStyle="plain" hasLineColor="false" height="22.37646484375" horizontalTextPosition="center" iconTextGap="4" modelName="internal" modelPosition="t" textColor="#000000" verticalTextPosition="bottom" visible="true" width="163.89352874999912" x="0.0" xml:space="preserve" y="0.0">Main Board</y:NodeLabel>
              <y:Shape type="rectangle"/>
              <y:DropShadow color="#D2D2D2" offsetX="4" offsetY="4"/>
              <y:State closed="true" closedHeight="363.5409375" closedWidth="163.89352874999912" innerGraphDisplayEnabled="false"/>
              <y:Insets bottom="5" bottomF="5.0" left="5" leftF="5.0" right="5" rightF="5.0" top="5" topF="5.0"/>
              <y:BorderInsets bottom="0" bottomF="0.0" left="0" leftF="0.0" right="0" rightF="0.0" top="0" topF="0.0"/>
            </y:GroupNode>
          </y:Realizers>
        </y:ProxyAutoBoundsNode>
      </data>
      <graph edgedefault="directed" id="n1:">
        <node id="n1::n0">
          <data key="d6">
            <y:ShapeNode>
              <y:Geometry height="54.960000000000036" width="152.65055999999913" x="937.7464000000008" y="343.39680434560563"/>
              <y:Fill color="#DEE8EA" transparent="false"/>
              <y:BorderStyle color="#000000" raised="false" type="line" width="1.0"/>
              <y:NodeLabel alignment="center" autoSizePolicy="content" fontFamily="Lato" fontSize="12" fontStyle="plain" hasBackgroundColor="false" hasLineColor="false" height="16.000083923339844" horizontalTextPosition="center" iconTextGap="4" modelName="custom" textColor="#000000" verticalTextPosition="bottom" visible="true" width="125.62681579589844" x="13.511872102050347" xml:space="preserve" y="19.479958038330096">Mikrokontroler STM32<y:LabelModel><y:SmartNodeLabelModel distance="4.0"/></y:LabelModel><y:ModelParameter><y:SmartNodeLabelModelParameter labelRatioX="0.0" labelRatioY="0.0" nodeRatioX="0.0" nodeRatioY="0.0" offsetX="0.0" offsetY="0.0" upX="0.0" upY="-1.0"/></y:ModelParameter></y:NodeLabel>
              <y:Shape type="rectangle"/>
            </y:ShapeNode>
          </data>
        </node>
      </graph>
    </node>
    <node id="n2" yfiles.foldertype="group">
      <data key="d4" xml:space="preserve"/>
      <data key="d6">
        <y:ProxyAutoBoundsNode>
          <y:Realizers active="0">
            <y:GroupNode>
              <y:Geometry height="83.95986648559574" width="162.65055999999913" x="-42.0615199999977" y="-13.23993324279786"/>
              <y:Fill color="#6ABA9C" transparent="false"/>
              <y:BorderStyle color="#000000" type="line" width="1.0"/>
              <y:NodeLabel alignment="right" autoSizePolicy="node_width" backgroundColor="#3C3C4C" borderDistance="0.0" fontFamily="Lato" fontSize="15" fontStyle="plain" hasLineColor="false" height="18.999866485595703" horizontalTextPosition="center" iconTextGap="4" modelName="internal" modelPosition="t" textColor="#FFFFFF" verticalTextPosition="bottom" visible="true" width="162.65055999999913" x="0.0" xml:space="preserve" y="0.0">Płyta główna</y:NodeLabel>
              <y:Shape type="rectangle"/>
              <y:DropShadow color="#D2D2D2" offsetX="4" offsetY="4"/>
              <y:State closed="false" closedHeight="50.0" closedWidth="50.0" innerGraphDisplayEnabled="false"/>
              <y:Insets bottom="5" bottomF="5.0" left="5" leftF="5.0" right="5" rightF="5.0" top="5" topF="5.0"/>
              <y:BorderInsets bottom="0" bottomF="0.0" left="0" leftF="0.0" right="0" rightF="0.0" top="0" topF="0.0"/>
            </y:GroupNode>
            <y:GroupNode>
              <y:Geometry height="363.5409375" width="163.89352874999912" x="414.2354918400008" y="189.87999999999985"/>
              <y:Fill color="#F2F0D8" transparent="false"/>
              <y:BorderStyle color="#000000" type="line" width="1.0"/>
              <y:NodeLabel alignment="right" autoSizePolicy="node_width" backgroundColor="#B7B69E" borderDistance="0.0" fontFamily="Dialog" fontSize="15" fontStyle="plain" hasLineColor="false" height="22.37646484375" horizontalTextPosition="center" iconTextGap="4" modelName="internal" modelPosition="t" textColor="#000000" verticalTextPosition="bottom" visible="true" width="163.89352874999912" x="0.0" xml:space="preserve" y="0.0">Main Board</y:NodeLabel>
              <y:Shape type="rectangle"/>
              <y:DropShadow color="#D2D2D2" offsetX="4" offsetY="4"/>
              <y:State closed="true" closedHeight="363.5409375" closedWidth="163.89352874999912" innerGraphDisplayEnabled="false"/>
              <y:Insets bottom="5" bottomF="5.0" left="5" leftF="5.0" right="5" rightF="5.0" top="5" topF="5.0"/>
              <y:BorderInsets bottom="0" bottomF="0.0" left="0" leftF="0.0" right="0" rightF="0.0" top="0" topF="0.0"/>
            </y:GroupNode>
          </y:Realizers>
        </y:ProxyAutoBoundsNode>
      </data>
      <graph edgedefault="directed" id="n2:">
        <node id="n2::n0">
          <data key="d6">
            <y:ShapeNode>
              <y:Geometry height="54.960000000000036" width="152.65055999999913" x="-37.0615199999977" y="10.759933242797842"/>
              <y:Fill color="#DEE8EA" transparent="false"/>
              <y:BorderStyle color="#000000" raised="false" type="line" width="1.0"/>
              <y:NodeLabel alignment="center" autoSizePolicy="content" fontFamily="Lato" fontSize="12" fontStyle="plain" hasBackgroundColor="false" hasLineColor="false" height="16.000083923339844" horizontalTextPosition="center" iconTextGap="4" modelName="custom" textColor="#000000" verticalTextPosition="bottom" visible="true" width="125.62681579589844" x="13.511872102050347" xml:space="preserve" y="19.479958038330096">Mikrokontroler STM32<y:LabelModel><y:SmartNodeLabelModel distance="4.0"/></y:LabelModel><y:ModelParameter><y:SmartNodeLabelModelParameter labelRatioX="0.0" labelRatioY="0.0" nodeRatioX="0.0" nodeRatioY="0.0" offsetX="0.0" offsetY="0.0" upX="0.0" upY="-1.0"/></y:ModelParameter></y:NodeLabel>
              <y:Shape type="rectangle"/>
            </y:ShapeNode>
          </data>
        </node>
      </graph>
    </node>
    <node id="n3" yfiles.foldertype="group">
      <data key="d4" xml:space="preserve"/>
      <data key="d6">
        <y:ProxyAutoBoundsNode>
          <y:Realizers active="0">
            <y:GroupNode>
              <y:Geometry height="117.35789198559564" width="189.53055999999924" x="916.1064000000006" y="461.0279216912112"/>
              <y:Fill color="#6ABA9C" transparent="false"/>
              <y:BorderStyle color="#000000" type="line" width="1.0"/>
              <y:NodeLabel alignment="right" autoSizePolicy="node_width" backgroundColor="#3C3C4C" borderDistance="0.0" fontFamily="Lato" fontSize="15" fontStyle="plain" hasLineColor="false" height="18.999866485595703" horizontalTextPosition="center" iconTextGap="4" modelName="internal" modelPosition="t" textColor="#FFFFFF" verticalTextPosition="bottom" visible="true" width="189.53055999999924" x="0.0" xml:space="preserve" y="0.0">Komputer misji</y:NodeLabel>
              <y:Shape type="rectangle"/>
              <y:DropShadow color="#D2D2D2" offsetX="4" offsetY="4"/>
              <y:State closed="false" closedHeight="50.0" closedWidth="50.0" innerGraphDisplayEnabled="false"/>
              <y:Insets bottom="5" bottomF="5.0" left="5" leftF="5.0" right="5" rightF="5.0" top="5" topF="5.0"/>
              <y:BorderInsets bottom="10" bottomF="10.183671647998949" left="17" leftF="16.6400000000001" right="10" rightF="10.240000000000009" top="23" topF="23.214353852000954"/>
            </y:GroupNode>
            <y:GroupNode>
              <y:Geometry height="363.5409375" width="163.89352874999912" x="414.2354918400008" y="189.87999999999985"/>
              <y:Fill color="#F2F0D8" transparent="false"/>
              <y:BorderStyle color="#000000" type="line" width="1.0"/>
              <y:NodeLabel alignment="right" autoSizePolicy="node_width" backgroundColor="#B7B69E" borderDistance="0.0" fontFamily="Dialog" fontSize="15" fontStyle="plain" hasLineColor="false" height="22.37646484375" horizontalTextPosition="center" iconTextGap="4" modelName="internal" modelPosition="t" textColor="#000000" verticalTextPosition="bottom" visible="true" width="163.89352874999912" x="0.0" xml:space="preserve" y="0.0">Main Board</y:NodeLabel>
              <y:Shape type="rectangle"/>
              <y:DropShadow color="#D2D2D2" offsetX="4" offsetY="4"/>
              <y:State closed="true" closedHeight="363.5409375" closedWidth="163.89352874999912" innerGraphDisplayEnabled="false"/>
              <y:Insets bottom="5" bottomF="5.0" left="5" leftF="5.0" right="5" rightF="5.0" top="5" topF="5.0"/>
              <y:BorderInsets bottom="0" bottomF="0.0" left="0" leftF="0.0" right="0" rightF="0.0" top="0" topF="0.0"/>
            </y:GroupNode>
          </y:Realizers>
        </y:ProxyAutoBoundsNode>
      </data>
      <graph edgedefault="directed" id="n3:">
        <node id="n3::n0">
          <data key="d6">
            <y:ShapeNode>
              <y:Geometry height="54.960000000000036" width="152.65055999999913" x="937.7464000000007" y="508.24214202880785"/>
              <y:Fill color="#DEE8EA" transparent="false"/>
              <y:BorderStyle color="#000000" raised="false" type="line" width="1.0"/>
              <y:NodeLabel alignment="center" autoSizePolicy="content" fontFamily="Lato" fontSize="12" fontStyle="plain" hasBackgroundColor="false" hasLineColor="false" height="16.000083923339844" horizontalTextPosition="center" iconTextGap="4" modelName="custom" textColor="#000000" verticalTextPosition="bottom" visible="true" width="73.05445861816406" x="39.798050690917535" xml:space="preserve" y="19.479958038330096">Zapis danych<y:LabelModel><y:SmartNodeLabelModel distance="4.0"/></y:LabelModel><y:ModelParameter><y:SmartNodeLabelModelParameter labelRatioX="0.0" labelRatioY="0.0" nodeRatioX="0.0" nodeRatioY="0.0" offsetX="0.0" offsetY="0.0" upX="0.0" upY="-1.0"/></y:ModelParameter></y:NodeLabel>
              <y:Shape type="rectangle"/>
            </y:ShapeNode>
          </data>
        </node>
      </graph>
    </node>
    <node id="n4" yfiles.foldertype="group">
      <data key="d4" xml:space="preserve"/>
      <data key="d6">
        <y:ProxyAutoBoundsNode>
          <y:Realizers active="0">
            <y:GroupNode>
              <y:Geometry height="270.72474266240295" width="210.3305599999992" x="599.4222033105518" y="307.6610710144039"/>
              <y:Fill color="#6ABA9C" transparent="false"/>
              <y:BorderStyle color="#000000" type="line" width="1.0"/>
              <y:NodeLabel alignment="right" autoSizePolicy="node_width" backgroundColor="#3C3C4C" borderDistance="0.0" fontFamily="Lato" fontSize="15" fontStyle="plain" hasLineColor="false" height="18.999866485595703" horizontalTextPosition="center" iconTextGap="4" modelName="internal" modelPosition="t" textColor="#FFFFFF" verticalTextPosition="bottom" visible="true" width="210.3305599999992" x="0.0" xml:space="preserve" y="0.0">Płyta główna</y:NodeLabel>
              <y:Shape type="rectangle"/>
              <y:DropShadow color="#D2D2D2" offsetX="4" offsetY="4"/>
              <y:State closed="false" closedHeight="50.0" closedWidth="50.0" innerGraphDisplayEnabled="false"/>
              <y:Insets bottom="5" bottomF="5.0" left="5" leftF="5.0" right="5" rightF="5.0" top="5" topF="5.0"/>
              <y:BorderInsets bottom="10" bottomF="10.183671647998949" left="5" leftF="5.061556689449162" right="6" rightF="5.567883310551906" top="7" topF="6.661204528808128"/>
            </y:GroupNode>
            <y:GroupNode>
              <y:Geometry height="50.0" width="50.0" x="166.29056000000105" y="196.27999999999986"/>
              <y:Fill color="#F2F0D8" transparent="false"/>
              <y:BorderStyle color="#000000" type="line" width="1.0"/>
              <y:NodeLabel alignment="right" autoSizePolicy="node_width" backgroundColor="#B7B69E" borderDistance="0.0" fontFamily="Dialog" fontSize="15" fontStyle="plain" hasLineColor="false" height="22.37646484375" horizontalTextPosition="center" iconTextGap="4" modelName="internal" modelPosition="t" textColor="#000000" verticalTextPosition="bottom" visible="true" width="50.0" x="0.0" xml:space="preserve" y="0.0">3</y:NodeLabel>
              <y:Shape type="rectangle"/>
              <y:DropShadow color="#D2D2D2" offsetX="4" offsetY="4"/>
              <y:State closed="true" closedHeight="50.0" closedWidth="50.0" innerGraphDisplayEnabled="false"/>
              <y:Insets bottom="5" bottomF="5.0" left="5" leftF="5.0" right="5" rightF="5.0" top="5" topF="5.0"/>
              <y:BorderInsets bottom="0" bottomF="0.0" left="0" leftF="0.0" right="0" rightF="0.0" top="0" topF="0.0"/>
            </y:GroupNode>
          </y:Realizers>
        </y:ProxyAutoBoundsNode>
      </data>
      <graph edgedefault="directed" id="n4:">
        <node id="n4::n0">
          <data key="d6">
            <y:ShapeNode>
              <y:Geometry height="54.960000000000036" width="79.85055999999912" x="719.3343199999999" y="423.28214202880775"/>
              <y:Fill color="#DEE8EA" transparent="false"/>
              <y:BorderStyle color="#000000" raised="false" type="line" width="1.0"/>
              <y:NodeLabel alignment="center" autoSizePolicy="content" fontFamily="Lato" fontSize="12" fontStyle="plain" hasBackgroundColor="false" hasLineColor="false" height="28.000167846679688" horizontalTextPosition="center" iconTextGap="4" modelName="custom" textColor="#000000" verticalTextPosition="bottom" visible="true" width="56.572357177734375" x="11.639101411132401" xml:space="preserve" y="13.479916076660174">Biblioteka
MAVLink<y:LabelModel><y:SmartNodeLabelModel distance="4.0"/></y:LabelModel><y:ModelParameter><y:SmartNodeLabelModelParameter labelRatioX="0.0" labelRatioY="0.0" nodeRatioX="0.0" nodeRatioY="0.0" offsetX="0.0" offsetY="0.0" upX="0.0" upY="-1.0"/></y:ModelParameter></y:NodeLabel>
              <y:Shape type="rectangle"/>
            </y:ShapeNode>
          </data>
        </node>
        <node id="n4::n1">
          <data key="d6">
            <y:ShapeNode>
              <y:Geometry height="54.960000000000036" width="189.61583999999857" x="609.483760000001" y="508.24214202880785"/>
              <y:Fill color="#DEE8EA" transparent="false"/>
              <y:BorderStyle color="#000000" raised="false" type="line" width="1.0"/>
              <y:NodeLabel alignment="center" autoSizePolicy="content" fontFamily="Lato" fontSize="12" fontStyle="plain" hasBackgroundColor="false" hasLineColor="false" height="16.000083923339844" horizontalTextPosition="center" iconTextGap="4" modelName="custom" textColor="#000000" verticalTextPosition="bottom" visible="true" width="128.6568603515625" x="30.479489824218035" xml:space="preserve" y="19.479958038330096">Firmware STM32 (HAL)<y:LabelModel><y:SmartNodeLabelModel distance="4.0"/></y:LabelModel><y:ModelParameter><y:SmartNodeLabelModelParameter labelRatioX="0.0" labelRatioY="0.0" nodeRatioX="0.0" nodeRatioY="0.0" offsetX="0.0" offsetY="0.0" upX="0.0" upY="-1.0"/></y:ModelParameter></y:NodeLabel>
              <y:Shape type="rectangle"/>
            </y:ShapeNode>
          </data>
        </node>
        <node id="n4::n2">
          <data key="d6">
            <y:ShapeNode>
              <y:Geometry height="54.960000000000036" width="79.85055999999909" x="609.483760000001" y="423.28214202880775"/>
              <y:Fill color="#DEE8EA" transparent="false"/>
              <y:BorderStyle color="#000000" raised="false" type="line" width="1.0"/>
              <y:NodeLabel alignment="center" autoSizePolicy="content" fontFamily="Lato" fontSize="12" fontStyle="plain" hasBackgroundColor="false" hasLineColor="false" height="28.000167846679688" horizontalTextPosition="center" iconTextGap="4" modelName="custom" textColor="#000000" verticalTextPosition="bottom" visible="true" width="56.572357177734375" x="11.639101411132401" xml:space="preserve" y="13.479916076660174">Biblioteka
1-Wire<y:LabelModel><y:SmartNodeLabelModel distance="4.0"/></y:LabelModel><y:ModelParameter><y:SmartNodeLabelModelParameter labelRatioX="0.0" labelRatioY="0.0" nodeRatioX="0.0" nodeRatioY="0.0" offsetX="0.0" offsetY="0.0" upX="0.0" upY="-1.0"/></y:ModelParameter></y:NodeLabel>
              <y:Shape type="rectangle"/>
            </y:ShapeNode>
          </data>
        </node>
        <node id="n4::n3">
          <data key="d6">
            <y:ShapeNode>
              <y:Geometry height="54.960000000000036" width="189.70111999999813" x="609.483760000001" y="338.3221420288077"/>
              <y:Fill color="#DEE8EA" transparent="false"/>
              <y:BorderStyle color="#000000" raised="false" type="line" width="1.0"/>
              <y:NodeLabel alignment="center" autoSizePolicy="content" fontFamily="Lato" fontSize="12" fontStyle="plain" hasBackgroundColor="false" hasLineColor="false" height="16.000083923339844" horizontalTextPosition="center" iconTextGap="4" modelName="custom" textColor="#000000" verticalTextPosition="bottom" visible="true" width="74.59048461914062" x="57.55531769042872" xml:space="preserve" y="19.479958038330096">Główna pętla<y:LabelModel><y:SmartNodeLabelModel distance="4.0"/></y:LabelModel><y:ModelParameter><y:SmartNodeLabelModelParameter labelRatioX="0.0" labelRatioY="0.0" nodeRatioX="0.0" nodeRatioY="0.0" offsetX="0.0" offsetY="0.0" upX="0.0" upY="-1.0"/></y:ModelParameter></y:NodeLabel>
              <y:Shape type="rectangle"/>
            </y:ShapeNode>
          </data>
        </node>
      </graph>
    </node>
    <edge id="n0::e0" source="n0::n3" target="n0::n2">
      <data key="d9"/>
      <data key="d10">
        <y:PolyLineEdge>
          <y:Path sx="-54.92527999999953" sy="6.9592686480005455" tx="0.0" ty="0.0"/>
          <y:LineStyle color="#000000" type="line" width="1.0"/>
          <y:Arrows source="standard" target="standard"/>
          <y:BendStyle smoothed="false"/>
        </y:PolyLineEdge>
      </data>
    </edge>
    <edge id="n0::e1" source="n0::n3" target="n0::n0">
      <data key="d9"/>
      <data key="d10">
        <y:PolyLineEdge>
          <y:Path sx="54.92527999999959" sy="9.959268648000545" tx="0.0" ty="0.0"/>
          <y:LineStyle color="#000000" type="line" width="1.0"/>
          <y:Arrows source="standard" target="standard"/>
          <y:BendStyle smoothed="false"/>
        </y:PolyLineEdge>
      </data>
    </edge>
    <edge id="n0::e2" source="n0::n0" target="n0::n1">
      <data key="d9"/>
      <data key="d10">
        <y:PolyLineEdge>
          <y:Path sx="0.0" sy="0.0" tx="54.92527999999959" ty="-10.960731351999584"/>
          <y:LineStyle color="#000000" type="line" width="1.0"/>
          <y:Arrows source="standard" target="standard"/>
          <y:BendStyle smoothed="false"/>
        </y:PolyLineEdge>
      </data>
    </edge>
    <edge id="n0::e3" source="n0::n2" target="n0::n1">
      <data key="d9"/>
      <data key="d10">
        <y:PolyLineEdge>
          <y:Path sx="0.0" sy="0.0" tx="-54.92527999999953" ty="2.039268648000416"/>
          <y:LineStyle color="#000000" type="line" width="1.0"/>
          <y:Arrows source="standard" target="standard"/>
          <y:BendStyle smoothed="false"/>
        </y:PolyLineEdge>
      </data>
    </edge>
    <edge id="n4::e0" source="n4::n3" target="n4::n2">
      <data key="d9"/>
      <data key="d10">
        <y:PolyLineEdge>
          <y:Path sx="-54.925279999999475" sy="1.9592686480005455" tx="0.0" ty="0.0"/>
          <y:LineStyle color="#000000" type="line" width="1.0"/>
          <y:Arrows source="standard" target="standard"/>
          <y:BendStyle smoothed="false"/>
        </y:PolyLineEdge>
      </data>
    </edge>
    <edge id="n4::e1" source="n4::n3" target="n4::n0">
      <data key="d9"/>
      <data key="d10">
        <y:PolyLineEdge>
          <y:Path sx="54.925279999999475" sy="-0.040731351999454546" tx="0.0" ty="0.0"/>
          <y:LineStyle color="#000000" type="line" width="1.0"/>
          <y:Arrows source="standard" target="standard"/>
          <y:BendStyle smoothed="false"/>
        </y:PolyLineEdge>
      </data>
    </edge>
    <edge id="n4::e2" source="n4::n0" target="n4::n1">
      <data key="d9"/>
      <data key="d10">
        <y:PolyLineEdge>
          <y:Path sx="0.0" sy="0.0" tx="54.96791999999925" ty="-7.960731351999584"/>
          <y:LineStyle color="#000000" type="line" width="1.0"/>
          <y:Arrows source="standard" target="standard"/>
          <y:BendStyle smoothed="false"/>
        </y:PolyLineEdge>
      </data>
    </edge>
    <edge id="n4::e3" source="n4::n2" target="n4::n1">
      <data key="d9"/>
      <data key="d10">
        <y:PolyLineEdge>
          <y:Path sx="0.0" sy="0.0" tx="-54.8826399999997" ty="0.03926864800041585"/>
          <y:LineStyle color="#000000" type="line" width="1.0"/>
          <y:Arrows source="standard" target="standard"/>
          <y:BendStyle smoothed="false"/>
        </y:PolyLineEdge>
      </data>
    </edge>
  </graph>
  <data key="d7">
    <y:Resources/>
  </data>
</graphml>
