EESchema Schematic File Version 4
LIBS:archer-main-board-cache
EELAYER 30 0
EELAYER END
$Descr A4 11693 8268
encoding utf-8
Sheet 2 2
Title "ARCHER Mainboard"
Date "28.11.2019"
Rev "1"
Comp "Warsaw University of Technology"
Comment1 "Marek Łukasiewicz"
Comment2 ""
Comment3 ""
Comment4 ""
$EndDescr
Text HLabel 7250 5500 2    50   Output ~ 0
SPI_CS
Text HLabel 7250 5600 2    50   Output ~ 0
SPI_SCLK
Text HLabel 7250 5700 2    50   Input ~ 0
SPI_MISO
Text HLabel 7250 5800 2    50   Output ~ 0
SPI_MOSI
Text HLabel 7250 4900 2    50   BiDi ~ 0
I2C_SCK
Text HLabel 7250 5000 2    50   BiDi ~ 0
I2C_SDA
Text HLabel 5650 5200 0    50   Input ~ 0
RPM_TAIL2
Text HLabel 5650 5100 0    50   Input ~ 0
RPM_TAIL1
Text HLabel 5650 5000 0    50   Input ~ 0
RPM_MAIN
Text HLabel 8850 4300 2    50   Input ~ 0
UART_OUT_RX
Text HLabel 9650 4450 2    50   Output ~ 0
UART_OUT_TX
Text HLabel 8850 3000 2    50   Input ~ 0
UART_PWR_RX
Text HLabel 9650 3150 2    50   Output ~ 0
UART_PWR_TX
Text HLabel 7250 3000 2    50   Input ~ 0
DAC_BAT_CURR
Text HLabel 7250 3100 2    50   Input ~ 0
DAC_BATT_VOLT
$Comp
L Regulator_Linear:L78L33_SOT89 U1
U 1 1 5D5E8B53
P 1550 900
F 0 "U1" H 1550 1142 50  0000 C CNN
F 1 "L78L33_SOT89" H 1550 1051 50  0000 C CNN
F 2 "TO_SOT_Packages_SMD:SOT-89-3_Handsoldering" H 1550 1100 50  0001 C CIN
F 3 "http://www.st.com/content/ccc/resource/technical/document/datasheet/15/55/e5/aa/23/5b/43/fd/CD00000446.pdf/files/CD00000446.pdf/jcr:content/translations/en.CD00000446.pdf" H 1550 850 50  0001 C CNN
	1    1550 900 
	1    0    0    -1  
$EndComp
$Comp
L power:+5V #PWR0117
U 1 1 5D5E8C71
P 550 900
F 0 "#PWR0117" H 550 750 50  0001 C CNN
F 1 "+5V" H 565 1073 50  0000 C CNN
F 2 "" H 550 900 50  0001 C CNN
F 3 "" H 550 900 50  0001 C CNN
	1    550  900 
	1    0    0    -1  
$EndComp
$Comp
L power:GND #PWR0118
U 1 1 5D5EB00E
P 1550 1200
F 0 "#PWR0118" H 1550 950 50  0001 C CNN
F 1 "GND" H 1555 1027 50  0000 C CNN
F 2 "" H 1550 1200 50  0001 C CNN
F 3 "" H 1550 1200 50  0001 C CNN
	1    1550 1200
	1    0    0    -1  
$EndComp
$Comp
L Device:C C4
U 1 1 5D5EC2B5
P 2300 1200
F 0 "C4" H 2415 1246 50  0000 L CNN
F 1 "100nF" H 2415 1155 50  0000 L CNN
F 2 "Capacitors_SMD:C_0805_HandSoldering" H 2338 1050 50  0001 C CNN
F 3 "~" H 2300 1200 50  0001 C CNN
	1    2300 1200
	1    0    0    -1  
$EndComp
$Comp
L power:GND #PWR0119
U 1 1 5D5ECB7C
P 2300 1350
F 0 "#PWR0119" H 2300 1100 50  0001 C CNN
F 1 "GND" H 2305 1177 50  0000 C CNN
F 2 "" H 2300 1350 50  0001 C CNN
F 3 "" H 2300 1350 50  0001 C CNN
	1    2300 1350
	1    0    0    -1  
$EndComp
$Comp
L Device:LED D1
U 1 1 5D5ED02F
P 2850 1600
F 0 "D1" V 2889 1482 50  0000 R CNN
F 1 " LED_RED" V 2798 1482 50  0000 R CNN
F 2 "LEDs:LED_1206_HandSoldering" H 2850 1600 50  0001 C CNN
F 3 "~" H 2850 1600 50  0001 C CNN
	1    2850 1600
	0    -1   -1   0   
$EndComp
$Comp
L Device:R R1
U 1 1 5D5EE4C5
P 2850 1200
F 0 "R1" H 2920 1246 50  0000 L CNN
F 1 "510" H 2920 1155 50  0000 L CNN
F 2 "Resistors_SMD:R_0805_HandSoldering" V 2780 1200 50  0001 C CNN
F 3 "~" H 2850 1200 50  0001 C CNN
	1    2850 1200
	1    0    0    -1  
$EndComp
Wire Wire Line
	2850 1350 2850 1450
$Comp
L power:GND #PWR0120
U 1 1 5D5F3CA3
P 2850 1750
F 0 "#PWR0120" H 2850 1500 50  0001 C CNN
F 1 "GND" H 2855 1577 50  0000 C CNN
F 2 "" H 2850 1750 50  0001 C CNN
F 3 "" H 2850 1750 50  0001 C CNN
	1    2850 1750
	1    0    0    -1  
$EndComp
Wire Wire Line
	1850 900  2050 900 
Connection ~ 2300 900 
Wire Wire Line
	2300 900  2300 1050
Wire Wire Line
	2300 900  2850 900 
Wire Wire Line
	2850 900  2850 1050
Connection ~ 2850 900 
Wire Wire Line
	2850 900  3200 900 
$Comp
L Device:LED D6
U 1 1 5D5F6BB0
P 10450 2700
F 0 "D6" V 10489 2582 50  0000 R CNN
F 1 " LED_GREEN" V 10398 2582 50  0000 R CNN
F 2 "LEDs:LED_1206_HandSoldering" H 10450 2700 50  0001 C CNN
F 3 "~" H 10450 2700 50  0001 C CNN
	1    10450 2700
	0    -1   -1   0   
$EndComp
$Comp
L Device:R R7
U 1 1 5D5F75EB
P 10450 2350
F 0 "R7" H 10520 2396 50  0000 L CNN
F 1 "510" H 10520 2305 50  0000 L CNN
F 2 "Resistors_SMD:R_0805_HandSoldering" V 10380 2350 50  0001 C CNN
F 3 "~" H 10450 2350 50  0001 C CNN
	1    10450 2350
	1    0    0    -1  
$EndComp
Wire Wire Line
	10450 2500 10450 2550
$Comp
L power:GND #PWR0121
U 1 1 5D5F80AC
P 10450 2950
F 0 "#PWR0121" H 10450 2700 50  0001 C CNN
F 1 "GND" H 10455 2777 50  0000 C CNN
F 2 "" H 10450 2950 50  0001 C CNN
F 3 "" H 10450 2950 50  0001 C CNN
	1    10450 2950
	1    0    0    -1  
$EndComp
Wire Wire Line
	10450 2850 10450 2950
Wire Notes Line
	11100 3250 10350 3250
Wire Notes Line
	10350 3250 10350 2050
Wire Notes Line
	10350 2050 11100 2050
Wire Notes Line
	11100 2050 11100 3250
Text Notes 10350 3250 0    50   ~ 0
User LED
Wire Notes Line
	2700 2050 2700 1000
Wire Notes Line
	2700 1000 3350 1000
Wire Notes Line
	3350 1000 3350 2050
Wire Notes Line
	3350 2050 2700 2050
Text Notes 2700 2050 0    50   ~ 0
3.3V indicator
Wire Notes Line
	2650 2050 2650 550 
Wire Notes Line
	2650 550  500  550 
Wire Notes Line
	500  550  500  2050
Wire Notes Line
	500  2050 2650 2050
Text Notes 500  2050 0    50   ~ 0
3.3V power supply
$Comp
L Device:Crystal Y1
U 1 1 5D6194CE
P 10200 1200
F 0 "Y1" V 10246 1069 50  0000 R CNN
F 1 "8MHz 12pF" V 10155 1069 50  0000 R CNN
F 2 "Crystals:Crystal_HC49-4H_Vertical" H 10200 1200 50  0001 C CNN
F 3 "~" H 10200 1200 50  0001 C CNN
	1    10200 1200
	1    0    0    -1  
$EndComp
$Comp
L power:+3.3V #PWR0122
U 1 1 5D5F401E
P 3200 900
F 0 "#PWR0122" H 3200 750 50  0001 C CNN
F 1 "+3.3V" H 3215 1073 50  0000 C CNN
F 2 "" H 3200 900 50  0001 C CNN
F 3 "" H 3200 900 50  0001 C CNN
	1    3200 900 
	1    0    0    -1  
$EndComp
$Comp
L Device:C C11
U 1 1 5D61461F
P 5850 2050
F 0 "C11" H 5965 2096 50  0000 L CNN
F 1 "100nF" H 5965 2005 50  0000 L CNN
F 2 "Capacitors_SMD:C_0805_HandSoldering" H 5888 1900 50  0001 C CNN
F 3 "~" H 5850 2050 50  0001 C CNN
	1    5850 2050
	1    0    0    -1  
$EndComp
$Comp
L Device:C C10
U 1 1 5D639FE2
P 5400 2050
F 0 "C10" H 5515 2096 50  0000 L CNN
F 1 "100nF" H 5515 2005 50  0000 L CNN
F 2 "Capacitors_SMD:C_0805_HandSoldering" H 5438 1900 50  0001 C CNN
F 3 "~" H 5400 2050 50  0001 C CNN
	1    5400 2050
	1    0    0    -1  
$EndComp
$Comp
L power:GND #PWR0123
U 1 1 5D63A000
P 5850 2200
F 0 "#PWR0123" H 5850 1950 50  0001 C CNN
F 1 "GND" H 5855 2027 50  0000 C CNN
F 2 "" H 5850 2200 50  0001 C CNN
F 3 "" H 5850 2200 50  0001 C CNN
	1    5850 2200
	1    0    0    -1  
$EndComp
Text Notes 3600 1750 0    50   Italic 0
Decoupling capacitors:\n- 100nF ceramic\n- 1uF, 10uF Tantalum or ceramic
$Comp
L power:+3.3V #PWR0124
U 1 1 5D692C2F
P 6250 1900
F 0 "#PWR0124" H 6250 1750 50  0001 C CNN
F 1 "+3.3V" H 6265 2073 50  0000 C CNN
F 2 "" H 6250 1900 50  0001 C CNN
F 3 "" H 6250 1900 50  0001 C CNN
	1    6250 1900
	1    0    0    -1  
$EndComp
$Comp
L Device:C C12
U 1 1 5D6ABF59
P 9950 1450
F 0 "C12" H 10065 1496 50  0000 L CNN
F 1 "20pF" H 10065 1405 50  0000 L CNN
F 2 "Capacitors_SMD:C_0805_HandSoldering" H 9988 1300 50  0001 C CNN
F 3 "~" H 9950 1450 50  0001 C CNN
	1    9950 1450
	-1   0    0    -1  
$EndComp
Wire Wire Line
	9950 1200 10050 1200
$Comp
L power:GND #PWR0125
U 1 1 5D6B0317
P 9950 1600
F 0 "#PWR0125" H 9950 1350 50  0001 C CNN
F 1 "GND" H 9955 1427 50  0000 C CNN
F 2 "" H 9950 1600 50  0001 C CNN
F 3 "" H 9950 1600 50  0001 C CNN
	1    9950 1600
	1    0    0    -1  
$EndComp
$Comp
L Device:C C13
U 1 1 5D6B0669
P 10450 1450
F 0 "C13" H 10565 1496 50  0000 L CNN
F 1 "20pF" H 10565 1405 50  0000 L CNN
F 2 "Capacitors_SMD:C_0805_HandSoldering" H 10488 1300 50  0001 C CNN
F 3 "~" H 10450 1450 50  0001 C CNN
	1    10450 1450
	1    0    0    1   
$EndComp
$Comp
L power:GND #PWR0126
U 1 1 5D6B0B12
P 10450 1600
F 0 "#PWR0126" H 10450 1350 50  0001 C CNN
F 1 "GND" H 10455 1427 50  0000 C CNN
F 2 "" H 10450 1600 50  0001 C CNN
F 3 "" H 10450 1600 50  0001 C CNN
	1    10450 1600
	1    0    0    -1  
$EndComp
Wire Wire Line
	10350 1200 10450 1200
Text GLabel 10450 1100 2    50   Input ~ 0
MCU_OSC32_IN
Text GLabel 9950 900  2    50   Input ~ 0
MCU_OSC32_OUT
Connection ~ 9950 1200
Wire Wire Line
	9950 1200 9950 1300
Wire Wire Line
	10450 1100 10450 1200
Connection ~ 10450 1200
Wire Wire Line
	10450 1200 10450 1300
Wire Notes Line
	9600 600  11100 600 
Wire Notes Line
	11100 600  11100 1950
Wire Notes Line
	11100 1950 9600 1950
Wire Notes Line
	9600 1950 9600 600 
Text Notes 9600 1950 0    50   ~ 0
Crystal external LSE
Wire Wire Line
	9950 900  9950 1200
Text GLabel 9800 5700 0    50   Input ~ 0
NRST
Text Notes 8850 6450 0    50   ~ 0
ST Link V2 (SWD) Connection
Wire Wire Line
	5750 4800 5650 4800
Text GLabel 10650 2200 2    50   Input ~ 0
MCU_LED
Wire Wire Line
	10650 2200 10450 2200
Text GLabel 7250 3600 2    50   Input ~ 0
MCU_RX
Wire Wire Line
	7150 3500 7250 3500
Wire Wire Line
	7250 3600 7150 3600
$Comp
L Device:R R3
U 1 1 5D79A287
P 8750 2450
F 0 "R3" H 8820 2496 50  0000 L CNN
F 1 "510" H 8820 2405 50  0000 L CNN
F 2 "Resistors_SMD:R_0805_HandSoldering" V 8680 2450 50  0001 C CNN
F 3 "~" H 8750 2450 50  0001 C CNN
	1    8750 2450
	1    0    0    -1  
$EndComp
$Comp
L Device:LED D2
U 1 1 5D79A45A
P 8750 2750
F 0 "D2" V 8789 2632 50  0000 R CNN
F 1 " LED_BLUE" V 8698 2632 50  0000 R CNN
F 2 "LEDs:LED_1206_HandSoldering" H 8750 2750 50  0001 C CNN
F 3 "~" H 8750 2750 50  0001 C CNN
	1    8750 2750
	0    -1   -1   0   
$EndComp
Wire Wire Line
	8750 3000 8750 2900
Wire Notes Line
	10250 2050 10250 3250
Wire Notes Line
	10250 3250 8200 3250
Wire Notes Line
	8200 3250 8200 2050
Wire Notes Line
	8200 2050 10250 2050
Text Notes 8200 3250 0    50   ~ 0
UART LEDs
$Comp
L Device:C C3
U 1 1 5D85360F
P 2050 1200
F 0 "C3" H 2165 1246 50  0000 L CNN
F 1 "1uF" H 2165 1155 50  0000 L CNN
F 2 "Capacitors_SMD:C_0805_HandSoldering" H 2088 1050 50  0001 C CNN
F 3 "~" H 2050 1200 50  0001 C CNN
	1    2050 1200
	-1   0    0    -1  
$EndComp
$Comp
L power:GND #PWR0127
U 1 1 5D853D83
P 2050 1350
F 0 "#PWR0127" H 2050 1100 50  0001 C CNN
F 1 "GND" H 2055 1177 50  0000 C CNN
F 2 "" H 2050 1350 50  0001 C CNN
F 3 "" H 2050 1350 50  0001 C CNN
	1    2050 1350
	1    0    0    -1  
$EndComp
Wire Wire Line
	2050 1050 2050 900 
Connection ~ 2050 900 
Wire Wire Line
	2050 900  2300 900 
Wire Wire Line
	550  900  800  900 
$Comp
L Device:C C2
U 1 1 5D85E640
P 1050 1200
F 0 "C2" H 1165 1246 50  0000 L CNN
F 1 "100nF" H 1165 1155 50  0000 L CNN
F 2 "Capacitors_SMD:C_0805_HandSoldering" H 1088 1050 50  0001 C CNN
F 3 "~" H 1050 1200 50  0001 C CNN
	1    1050 1200
	1    0    0    -1  
$EndComp
$Comp
L power:GND #PWR0128
U 1 1 5D85E64A
P 1050 1350
F 0 "#PWR0128" H 1050 1100 50  0001 C CNN
F 1 "GND" H 1055 1177 50  0000 C CNN
F 2 "" H 1050 1350 50  0001 C CNN
F 3 "" H 1050 1350 50  0001 C CNN
	1    1050 1350
	1    0    0    -1  
$EndComp
$Comp
L Device:C C1
U 1 1 5D85E654
P 800 1200
F 0 "C1" H 915 1246 50  0000 L CNN
F 1 "1uF" H 915 1155 50  0000 L CNN
F 2 "Capacitors_SMD:C_0805_HandSoldering" H 838 1050 50  0001 C CNN
F 3 "~" H 800 1200 50  0001 C CNN
	1    800  1200
	-1   0    0    -1  
$EndComp
$Comp
L power:GND #PWR0129
U 1 1 5D85E65E
P 800 1350
F 0 "#PWR0129" H 800 1100 50  0001 C CNN
F 1 "GND" H 805 1177 50  0000 C CNN
F 2 "" H 800 1350 50  0001 C CNN
F 3 "" H 800 1350 50  0001 C CNN
	1    800  1350
	1    0    0    -1  
$EndComp
Wire Wire Line
	1050 1050 1050 900 
Connection ~ 1050 900 
Wire Wire Line
	1050 900  1250 900 
Wire Wire Line
	800  1050 800  900 
Connection ~ 800  900 
Wire Wire Line
	800  900  1050 900 
$Comp
L power:+3.3V #PWR0130
U 1 1 5DD44717
P 8750 2300
F 0 "#PWR0130" H 8750 2150 50  0001 C CNN
F 1 "+3.3V" H 8765 2473 50  0000 C CNN
F 2 "" H 8750 2300 50  0001 C CNN
F 3 "" H 8750 2300 50  0001 C CNN
	1    8750 2300
	1    0    0    -1  
$EndComp
Wire Wire Line
	8650 3000 8750 3000
Connection ~ 8750 3000
Wire Wire Line
	8750 3000 8850 3000
$Comp
L Device:R R5
U 1 1 5DD6BCAB
P 9550 2600
F 0 "R5" H 9620 2646 50  0000 L CNN
F 1 "510" H 9620 2555 50  0000 L CNN
F 2 "Resistors_SMD:R_0805_HandSoldering" V 9480 2600 50  0001 C CNN
F 3 "~" H 9550 2600 50  0001 C CNN
	1    9550 2600
	1    0    0    -1  
$EndComp
$Comp
L Device:LED D4
U 1 1 5DD6BCB5
P 9550 2900
F 0 "D4" V 9589 2782 50  0000 R CNN
F 1 " LED_BLUE" V 9498 2782 50  0000 R CNN
F 2 "LEDs:LED_1206_HandSoldering" H 9550 2900 50  0001 C CNN
F 3 "~" H 9550 2900 50  0001 C CNN
	1    9550 2900
	0    -1   -1   0   
$EndComp
Wire Wire Line
	9550 3150 9550 3050
$Comp
L power:+3.3V #PWR0131
U 1 1 5DD6BCC0
P 9550 2450
F 0 "#PWR0131" H 9550 2300 50  0001 C CNN
F 1 "+3.3V" H 9565 2623 50  0000 C CNN
F 2 "" H 9550 2450 50  0001 C CNN
F 3 "" H 9550 2450 50  0001 C CNN
	1    9550 2450
	1    0    0    -1  
$EndComp
Wire Wire Line
	9450 3150 9550 3150
Connection ~ 9550 3150
Wire Wire Line
	9550 3150 9650 3150
Text GLabel 9450 3150 0    50   Input ~ 0
MCU_TX
Text GLabel 5650 4800 0    50   Input ~ 0
MCU_LED
Text GLabel 8650 3000 0    50   Input ~ 0
MCU_RX
Text GLabel 7250 3500 2    50   Input ~ 0
MCU_TX
$Comp
L power:GND #PWR0132
U 1 1 5DD2C243
P 9550 5800
F 0 "#PWR0132" H 9550 5550 50  0001 C CNN
F 1 "GND" H 9555 5627 50  0000 C CNN
F 2 "" H 9550 5800 50  0001 C CNN
F 3 "" H 9550 5800 50  0001 C CNN
	1    9550 5800
	0    1    1    0   
$EndComp
$Comp
L power:+5V #PWR0133
U 1 1 5DD2E322
P 9800 6100
F 0 "#PWR0133" H 9800 5950 50  0001 C CNN
F 1 "+5V" H 9815 6273 50  0000 C CNN
F 2 "" H 9800 6100 50  0001 C CNN
F 3 "" H 9800 6100 50  0001 C CNN
	1    9800 6100
	0    -1   -1   0   
$EndComp
Connection ~ 5300 2800
Wire Wire Line
	5100 2800 5300 2800
$Comp
L Connector_Generic:Conn_01x01 J20
U 1 1 5D7E2B49
P 5100 3000
F 0 "J20" H 5200 2900 50  0000 L CNN
F 1 "BOOT0" H 5200 3000 50  0000 L CNN
F 2 "Measurement_Points:Measurement_Point_Round-SMD-Pad_Small" H 5100 3000 50  0001 C CNN
F 3 "~" H 5100 3000 50  0001 C CNN
	1    5100 3000
	0    1    1    0   
$EndComp
$Comp
L power:GND #PWR0134
U 1 1 5D7E23DE
P 5300 3100
F 0 "#PWR0134" H 5300 2850 50  0001 C CNN
F 1 "GND" H 5305 2927 50  0000 C CNN
F 2 "" H 5300 3100 50  0001 C CNN
F 3 "" H 5300 3100 50  0001 C CNN
	1    5300 3100
	1    0    0    -1  
$EndComp
$Comp
L Device:R R2
U 1 1 5D7D7A7B
P 5300 2950
F 0 "R2" H 5370 2996 50  0000 L CNN
F 1 "10k" H 5370 2905 50  0000 L CNN
F 2 "Resistors_SMD:R_0805_HandSoldering" V 5230 2950 50  0001 C CNN
F 3 "~" H 5300 2950 50  0001 C CNN
	1    5300 2950
	1    0    0    -1  
$EndComp
Wire Wire Line
	5750 5800 5600 5800
Wire Wire Line
	5600 5700 5750 5700
Connection ~ 4650 2600
Wire Wire Line
	4550 2600 4650 2600
Text GLabel 4550 2600 0    50   Input ~ 0
NRST
Text GLabel 5600 5800 0    50   Input ~ 0
MCU_OSC32_OUT
Text GLabel 5600 5700 0    50   Input ~ 0
MCU_OSC32_IN
$Comp
L power:GND #PWR0135
U 1 1 5D69B209
P 4650 2900
F 0 "#PWR0135" H 4650 2650 50  0001 C CNN
F 1 "GND" H 4655 2727 50  0000 C CNN
F 2 "" H 4650 2900 50  0001 C CNN
F 3 "" H 4650 2900 50  0001 C CNN
	1    4650 2900
	1    0    0    -1  
$EndComp
$Comp
L Device:C C8
U 1 1 5D69AE43
P 4650 2750
F 0 "C8" H 4765 2796 50  0000 L CNN
F 1 "100nF" H 4765 2705 50  0000 L CNN
F 2 "Capacitors_SMD:C_0805_HandSoldering" H 4688 2600 50  0001 C CNN
F 3 "~" H 4650 2750 50  0001 C CNN
	1    4650 2750
	1    0    0    -1  
$EndComp
Wire Wire Line
	4650 2600 5750 2600
Wire Wire Line
	5300 2800 5750 2800
Text GLabel 10500 5700 2    50   Input ~ 0
SWDIO
Text GLabel 10500 5900 2    50   Input ~ 0
SWCLK
Wire Wire Line
	9800 5700 9900 5700
Wire Wire Line
	10500 5700 10400 5700
NoConn ~ 9900 5900
Wire Wire Line
	10400 5900 10500 5900
Text Notes 8850 5450 0    50   Italic 0
AFAIK SWIM is only used for STM8\nOnly take 5V from SWD, because\nusing on-board 3.3V supply
Wire Wire Line
	9550 5800 9900 5800
$Comp
L power:GND #PWR0136
U 1 1 5DDF2535
P 10800 5800
F 0 "#PWR0136" H 10800 5550 50  0001 C CNN
F 1 "GND" H 10805 5627 50  0000 C CNN
F 2 "" H 10800 5800 50  0001 C CNN
F 3 "" H 10800 5800 50  0001 C CNN
	1    10800 5800
	0    -1   -1   0   
$EndComp
Wire Wire Line
	10800 5800 10400 5800
Wire Wire Line
	9900 6100 9800 6100
Wire Wire Line
	10400 6100 10500 6100
$Comp
L power:+5V #PWR0137
U 1 1 5DE0483D
P 10500 6100
F 0 "#PWR0137" H 10500 5950 50  0001 C CNN
F 1 "+5V" H 10515 6273 50  0000 C CNN
F 2 "" H 10500 6100 50  0001 C CNN
F 3 "" H 10500 6100 50  0001 C CNN
	1    10500 6100
	0    1    1    0   
$EndComp
Wire Notes Line
	11100 5200 11100 6450
Wire Notes Line
	11100 6450 8850 6450
Wire Notes Line
	8850 6450 8850 5200
Wire Notes Line
	8850 5200 11100 5200
$Comp
L Connector_Generic:Conn_02x05_Odd_Even J21
U 1 1 5D6E6600
P 10100 5900
F 0 "J21" H 10150 6350 50  0000 C CNN
F 1 "AVR_ISP10_Male" H 10150 6250 50  0000 C CNN
F 2 "Connectors_IDC:IDC-Header_2x05_Pitch2.54mm_Straight" H 10100 5900 50  0001 C CNN
F 3 "~" H 10100 5900 50  0001 C CNN
	1    10100 5900
	1    0    0    -1  
$EndComp
Text GLabel 7250 3900 2    50   Input ~ 0
SWDIO
Wire Wire Line
	7250 3900 7150 3900
Text GLabel 7250 4000 2    50   Input ~ 0
SWCLK
Wire Wire Line
	7150 4000 7250 4000
Wire Wire Line
	7250 4900 7150 4900
Wire Wire Line
	7250 5000 7150 5000
Wire Wire Line
	5650 4300 5750 4300
Wire Wire Line
	5750 4400 5650 4400
Wire Wire Line
	5650 4500 5750 4500
Wire Wire Line
	5750 4600 5650 4600
$Comp
L MCU_ST_STM32F1:STM32F103RCTx U2
U 1 1 5DD87643
P 6450 4200
F 0 "U2" H 5450 4950 50  0000 C CNN
F 1 "STM32F103RCTx" H 5450 4850 50  0000 C CNN
F 2 "Housings_QFP:LQFP-64_10x10mm_Pitch0.5mm" H 5850 2500 50  0001 R CNN
F 3 "http://www.st.com/st-web-ui/static/active/en/resource/technical/document/datasheet/CD00191185.pdf" H 6450 4200 50  0001 C CNN
	1    6450 4200
	1    0    0    -1  
$EndComp
NoConn ~ 7150 3400
NoConn ~ 7150 3700
NoConn ~ 7150 3800
NoConn ~ 7150 4100
NoConn ~ 7150 4300
NoConn ~ 7150 4400
NoConn ~ 7150 4500
NoConn ~ 7150 4600
NoConn ~ 7150 4700
NoConn ~ 7150 4800
NoConn ~ 7150 5100
NoConn ~ 7150 5200
NoConn ~ 5750 5600
NoConn ~ 5750 5500
NoConn ~ 5750 5400
NoConn ~ 5750 5300
NoConn ~ 5750 4700
NoConn ~ 5750 4100
NoConn ~ 5750 4000
NoConn ~ 5750 3900
$Comp
L power:GND #PWR0138
U 1 1 5DF27E51
P 6450 6200
F 0 "#PWR0138" H 6450 5950 50  0001 C CNN
F 1 "GND" H 6455 6027 50  0000 C CNN
F 2 "" H 6450 6200 50  0001 C CNN
F 3 "" H 6450 6200 50  0001 C CNN
	1    6450 6200
	1    0    0    -1  
$EndComp
Wire Wire Line
	6250 6000 6250 6100
Wire Wire Line
	6250 6100 6350 6100
Wire Wire Line
	6350 6100 6350 6000
Connection ~ 6350 6100
Wire Wire Line
	6350 6100 6450 6100
Wire Wire Line
	6450 6000 6450 6100
Connection ~ 6450 6100
Wire Wire Line
	6550 6000 6550 6100
Wire Wire Line
	6550 6100 6450 6100
Wire Wire Line
	6650 6000 6650 6100
Wire Wire Line
	6650 6100 6550 6100
Connection ~ 6550 6100
Wire Wire Line
	6450 6100 6450 6200
NoConn ~ 10400 6000
NoConn ~ 9900 6000
$Comp
L Device:C C9
U 1 1 5DF8BB24
P 4950 2050
F 0 "C9" H 5065 2096 50  0000 L CNN
F 1 "100nF" H 5065 2005 50  0000 L CNN
F 2 "Capacitors_SMD:C_0805_HandSoldering" H 4988 1900 50  0001 C CNN
F 3 "~" H 4950 2050 50  0001 C CNN
	1    4950 2050
	1    0    0    -1  
$EndComp
$Comp
L Device:C C7
U 1 1 5DF8BEAB
P 4500 2050
F 0 "C7" H 4615 2096 50  0000 L CNN
F 1 "100nF" H 4615 2005 50  0000 L CNN
F 2 "Capacitors_SMD:C_0805_HandSoldering" H 4538 1900 50  0001 C CNN
F 3 "~" H 4500 2050 50  0001 C CNN
	1    4500 2050
	1    0    0    -1  
$EndComp
$Comp
L Device:C C6
U 1 1 5DF8C1CA
P 4050 2050
F 0 "C6" H 4165 2096 50  0000 L CNN
F 1 "100nF" H 4165 2005 50  0000 L CNN
F 2 "Capacitors_SMD:C_0805_HandSoldering" H 4088 1900 50  0001 C CNN
F 3 "~" H 4050 2050 50  0001 C CNN
	1    4050 2050
	1    0    0    -1  
$EndComp
$Comp
L Device:C C5
U 1 1 5DF8C695
P 3650 2050
F 0 "C5" H 3765 2096 50  0000 L CNN
F 1 "10uF" H 3765 2005 50  0000 L CNN
F 2 "Capacitors_Tantalum_SMD:CP_Tantalum_Case-A_EIA-3216-18_Hand" H 3688 1900 50  0001 C CNN
F 3 "~" H 3650 2050 50  0001 C CNN
	1    3650 2050
	1    0    0    -1  
$EndComp
Wire Wire Line
	3650 1900 4050 1900
Wire Wire Line
	6250 1900 6250 2400
Connection ~ 4050 1900
Wire Wire Line
	4050 1900 4500 1900
Connection ~ 4500 1900
Wire Wire Line
	4500 1900 4950 1900
Connection ~ 4950 1900
Wire Wire Line
	4950 1900 5400 1900
Connection ~ 5400 1900
Wire Wire Line
	5400 1900 5850 1900
Connection ~ 5850 1900
Wire Wire Line
	5850 1900 6250 1900
Wire Wire Line
	6250 1900 6350 1900
Wire Wire Line
	6350 1900 6350 2400
Connection ~ 6250 1900
Wire Wire Line
	6650 2400 6650 1900
Wire Wire Line
	6650 1900 6550 1900
Connection ~ 6350 1900
Wire Wire Line
	6450 1900 6450 2400
Wire Wire Line
	6550 2400 6550 1900
Connection ~ 6550 1900
Wire Wire Line
	6550 1900 6450 1900
Connection ~ 6450 1900
Wire Wire Line
	6450 1900 6350 1900
$Comp
L power:GND #PWR0139
U 1 1 5DFBC26D
P 5400 2200
F 0 "#PWR0139" H 5400 1950 50  0001 C CNN
F 1 "GND" H 5405 2027 50  0000 C CNN
F 2 "" H 5400 2200 50  0001 C CNN
F 3 "" H 5400 2200 50  0001 C CNN
	1    5400 2200
	1    0    0    -1  
$EndComp
$Comp
L power:GND #PWR0140
U 1 1 5DFBC4F1
P 4950 2200
F 0 "#PWR0140" H 4950 1950 50  0001 C CNN
F 1 "GND" H 4955 2027 50  0000 C CNN
F 2 "" H 4950 2200 50  0001 C CNN
F 3 "" H 4950 2200 50  0001 C CNN
	1    4950 2200
	1    0    0    -1  
$EndComp
$Comp
L power:GND #PWR0141
U 1 1 5DFBC5F5
P 4500 2200
F 0 "#PWR0141" H 4500 1950 50  0001 C CNN
F 1 "GND" H 4505 2027 50  0000 C CNN
F 2 "" H 4500 2200 50  0001 C CNN
F 3 "" H 4500 2200 50  0001 C CNN
	1    4500 2200
	1    0    0    -1  
$EndComp
$Comp
L power:GND #PWR0142
U 1 1 5DFBC829
P 4050 2200
F 0 "#PWR0142" H 4050 1950 50  0001 C CNN
F 1 "GND" H 4055 2027 50  0000 C CNN
F 2 "" H 4050 2200 50  0001 C CNN
F 3 "" H 4050 2200 50  0001 C CNN
	1    4050 2200
	1    0    0    -1  
$EndComp
$Comp
L power:GND #PWR0143
U 1 1 5DFBCA0C
P 3650 2200
F 0 "#PWR0143" H 3650 1950 50  0001 C CNN
F 1 "GND" H 3655 2027 50  0000 C CNN
F 2 "" H 3650 2200 50  0001 C CNN
F 3 "" H 3650 2200 50  0001 C CNN
	1    3650 2200
	1    0    0    -1  
$EndComp
Text HLabel 5650 4300 0    50   BiDi ~ 0
GPIO_0
Text HLabel 5650 4400 0    50   BiDi ~ 0
GPIO_1
Text HLabel 5650 4500 0    50   BiDi ~ 0
GPIO_2
Text HLabel 5650 4600 0    50   BiDi ~ 0
GPIO_3
Text Label 5300 2800 0    50   ~ 0
BOOT0
Wire Wire Line
	6750 2400 6750 1900
Wire Wire Line
	6750 1900 6650 1900
Connection ~ 6650 1900
$Comp
L Device:R R4
U 1 1 5DE3EE56
P 8750 3750
F 0 "R4" H 8820 3796 50  0000 L CNN
F 1 "510" H 8820 3705 50  0000 L CNN
F 2 "Resistors_SMD:R_0805_HandSoldering" V 8680 3750 50  0001 C CNN
F 3 "~" H 8750 3750 50  0001 C CNN
	1    8750 3750
	1    0    0    -1  
$EndComp
$Comp
L Device:LED D3
U 1 1 5DE3EE60
P 8750 4050
F 0 "D3" V 8789 3932 50  0000 R CNN
F 1 " LED_BLUE" V 8698 3932 50  0000 R CNN
F 2 "LEDs:LED_1206_HandSoldering" H 8750 4050 50  0001 C CNN
F 3 "~" H 8750 4050 50  0001 C CNN
	1    8750 4050
	0    -1   -1   0   
$EndComp
Wire Wire Line
	8750 4300 8750 4200
Wire Notes Line
	10250 3350 10250 4550
Wire Notes Line
	10250 4550 8200 4550
Wire Notes Line
	8200 4550 8200 3350
Wire Notes Line
	8200 3350 10250 3350
Text Notes 8200 4550 0    50   ~ 0
UART3 LEDs
$Comp
L power:+3.3V #PWR0144
U 1 1 5DE3EE70
P 8750 3600
F 0 "#PWR0144" H 8750 3450 50  0001 C CNN
F 1 "+3.3V" H 8765 3773 50  0000 C CNN
F 2 "" H 8750 3600 50  0001 C CNN
F 3 "" H 8750 3600 50  0001 C CNN
	1    8750 3600
	1    0    0    -1  
$EndComp
Wire Wire Line
	8650 4300 8750 4300
Connection ~ 8750 4300
Wire Wire Line
	8750 4300 8850 4300
$Comp
L Device:R R6
U 1 1 5DE3EE7D
P 9550 3900
F 0 "R6" H 9620 3946 50  0000 L CNN
F 1 "510" H 9620 3855 50  0000 L CNN
F 2 "Resistors_SMD:R_0805_HandSoldering" V 9480 3900 50  0001 C CNN
F 3 "~" H 9550 3900 50  0001 C CNN
	1    9550 3900
	1    0    0    -1  
$EndComp
$Comp
L Device:LED D5
U 1 1 5DE3EE87
P 9550 4200
F 0 "D5" V 9589 4082 50  0000 R CNN
F 1 " LED_BLUE" V 9498 4082 50  0000 R CNN
F 2 "LEDs:LED_1206_HandSoldering" H 9550 4200 50  0001 C CNN
F 3 "~" H 9550 4200 50  0001 C CNN
	1    9550 4200
	0    -1   -1   0   
$EndComp
Wire Wire Line
	9550 4450 9550 4350
$Comp
L power:+3.3V #PWR0145
U 1 1 5DE3EE92
P 9550 3750
F 0 "#PWR0145" H 9550 3600 50  0001 C CNN
F 1 "+3.3V" H 9565 3923 50  0000 C CNN
F 2 "" H 9550 3750 50  0001 C CNN
F 3 "" H 9550 3750 50  0001 C CNN
	1    9550 3750
	1    0    0    -1  
$EndComp
Wire Wire Line
	9450 4450 9550 4450
Connection ~ 9550 4450
Wire Wire Line
	9550 4450 9650 4450
Text GLabel 9450 4450 0    50   Input ~ 0
MCU_TX3
Text GLabel 8650 4300 0    50   Input ~ 0
MCU_RX3
Wire Wire Line
	7250 3000 7150 3000
Wire Wire Line
	7150 3100 7250 3100
Text GLabel 7250 5400 2    50   Input ~ 0
MCU_RX3
Text GLabel 7250 5300 2    50   Input ~ 0
MCU_TX3
Wire Wire Line
	7150 5300 7250 5300
Wire Wire Line
	7250 5400 7150 5400
Text HLabel 5650 4900 0    50   BiDi ~ 0
1WIRE_DQ
Wire Wire Line
	5650 4900 5750 4900
Wire Wire Line
	5750 5000 5650 5000
Wire Wire Line
	5650 5100 5750 5100
Wire Wire Line
	5750 5200 5650 5200
Wire Wire Line
	7150 5600 7250 5600
Wire Wire Line
	7150 5700 7250 5700
Wire Wire Line
	7250 5800 7150 5800
Wire Wire Line
	7150 5500 7250 5500
Text Notes 7700 5550 0    50   Italic 0
SPI_CS oncfigured by GPIO,\npin can be USART3_CK
NoConn ~ 7150 2600
NoConn ~ 7150 2700
NoConn ~ 7150 2800
NoConn ~ 7150 2900
NoConn ~ 7150 3200
NoConn ~ 7150 3300
$EndSCHEMATC
